<?xml version='1.0' encoding='UTF-8'?>
<osm version='0.6' generator='JOSM'>
  <node id='-384745' visible='true' lat='-34.62678621301' lon='150.47002739465'>
    <tag k='addr:housenumber' v='1059' />
    <tag k='addr:street' v='Nowra Road' />
  </node>
  <node id='-384747' visible='true' lat='-34.63736443447' lon='150.47170380566'>
    <tag k='addr:housenumber' v='1163' />
    <tag k='addr:street' v='Nowra Road' />
  </node>
  <node id='-384749' visible='true' lat='-34.66604564246' lon='150.43778675183'>
    <tag k='addr:housenumber' v='598' />
    <tag k='addr:street' v='Redhills Road' />
  </node>
  <node id='-384751' visible='true' lat='-34.64990535211' lon='150.48616616929'>
    <tag k='addr:housenumber' v='1380' />
    <tag k='addr:street' v='Nowra Road' />
  </node>
  <node id='-384753' visible='true' lat='-34.64468172714' lon='150.47778122571'>
    <tag k='addr:housenumber' v='6' />
    <tag k='addr:street' v='Casuarina Crescent' />
  </node>
  <node id='-384755' visible='true' lat='-34.62179069971' lon='150.45776170183'>
    <tag k='addr:housenumber' v='951' />
    <tag k='addr:street' v='Nowra Road' />
  </node>
  <node id='-384757' visible='true' lat='-34.64651833658' lon='150.47916760971'>
    <tag k='addr:housenumber' v='10' />
    <tag k='addr:street' v='Gwen Road' />
  </node>
  <node id='-384759' visible='true' lat='-34.6714511634' lon='150.49151494757'>
    <tag k='addr:housenumber' v='1669' />
    <tag k='addr:street' v='Nowra Road' />
  </node>
  <node id='-384761' visible='true' lat='-34.64489584485' lon='150.47472072959'>
    <tag k='addr:housenumber' v='11' />
    <tag k='addr:street' v='Throsby Road' />
  </node>
  <node id='-384763' visible='true' lat='-34.64611386567' lon='150.47725378053'>
    <tag k='addr:housenumber' v='12' />
    <tag k='addr:street' v='Casuarina Crescent' />
  </node>
  <node id='-384765' visible='true' lat='-34.63806669778' lon='150.47739694483'>
    <tag k='addr:housenumber' v='1261' />
    <tag k='addr:street' v='Sheepwash Road' />
  </node>
  <node id='-384767' visible='true' lat='-34.64382095852' lon='150.47759500321'>
    <tag k='addr:housenumber' v='9' />
    <tag k='addr:street' v='Throsby Road' />
  </node>
  <node id='-384769' visible='true' lat='-34.61774863159' lon='150.45614130659'>
    <tag k='addr:housenumber' v='925' />
    <tag k='addr:street' v='Nowra Road' />
  </node>
  <node id='-384771' visible='true' lat='-34.62674217444' lon='150.44291316801'>
    <tag k='addr:housenumber' v='161' />
    <tag k='addr:street' v='Redhills Road' />
  </node>
  <node id='-384773' visible='true' lat='-34.64033225814' lon='150.47189172607'>
    <tag k='addr:housenumber' v='1170' />
    <tag k='addr:street' v='Nowra Road' />
  </node>
  <node id='-384775' visible='true' lat='-34.67454426237' lon='150.48937252573'>
    <tag k='addr:housenumber' v='1671' />
    <tag k='addr:street' v='Nowra Road' />
  </node>
  <node id='-384777' visible='true' lat='-34.64382872026' lon='150.47792611436'>
    <tag k='addr:housenumber' v='7' />
    <tag k='addr:street' v='Throsby Road' />
  </node>
  <node id='-384779' visible='true' lat='-34.64633604087' lon='150.47926678565'>
    <tag k='addr:housenumber' v='8' />
    <tag k='addr:street' v='Gwen Road' />
  </node>
  <node id='-384781' visible='true' lat='-34.64804548654' lon='150.48567536954'>
    <tag k='addr:housenumber' v='1349' />
    <tag k='addr:street' v='Nowra Road' />
  </node>
  <node id='-384783' visible='true' lat='-34.66666561378' lon='150.4890442937'>
    <tag k='addr:housenumber' v='29' />
    <tag k='addr:street' v='Mannings Lookout Road' />
  </node>
  <node id='-384785' visible='true' lat='-34.64011268097' lon='150.47751088935'>
    <tag k='addr:housenumber' v='1222' />
    <tag k='addr:street' v='Nowra Road' />
  </node>
  <node id='-384787' visible='true' lat='-34.64714948382' lon='150.47709396084'>
    <tag k='addr:housenumber' v='30' />
    <tag k='addr:street' v='Gwen Road' />
  </node>
  <node id='-384789' visible='true' lat='-34.64524051214' lon='150.47959755938'>
    <tag k='addr:housenumber' v='1280' />
    <tag k='addr:street' v='Nowra Road' />
  </node>
  <node id='-384791' visible='true' lat='-34.64521933375' lon='150.47883507693'>
    <tag k='addr:housenumber' v='3' />
    <tag k='addr:street' v='Casuarina Crescent' />
  </node>
  <node id='-384793' visible='true' lat='-34.6156102675' lon='150.44086090499'>
    <tag k='addr:housenumber' v='45' />
    <tag k='addr:street' v='Redhills Road' />
  </node>
  <node id='-384795' visible='true' lat='-34.66747116538' lon='150.48685267008'>
    <tag k='addr:housenumber' v='15' />
    <tag k='addr:street' v='Mannings Lookout Road' />
  </node>
  <node id='-384797' visible='true' lat='-34.66307541468' lon='150.492832392'>
    <tag k='addr:housenumber' v='97' />
    <tag k='addr:street' v='Mannings Lookout Road' />
  </node>
  <node id='-384799' visible='true' lat='-34.63650911825' lon='150.47751324339'>
    <tag k='addr:housenumber' v='1241' />
    <tag k='addr:street' v='Sheepwash Road' />
  </node>
  <node id='-384801' visible='true' lat='-34.65214827819' lon='150.45408146473'>
    <tag k='addr:housenumber' v='227' />
    <tag k='addr:street' v='Somerset Road' />
  </node>
  <node id='-384803' visible='true' lat='-34.65524301259' lon='150.44964811676'>
    <tag k='addr:housenumber' v='543' />
    <tag k='addr:street' v='Redhills Road' />
  </node>
  <node id='-384805' visible='true' lat='-34.64801171043' lon='150.48545296782'>
    <tag k='addr:housenumber' v='1347' />
    <tag k='addr:street' v='Nowra Road' />
  </node>
  <node id='-384807' visible='true' lat='-34.65238815443' lon='150.48816997981'>
    <tag k='addr:housenumber' v='1402' />
    <tag k='addr:street' v='Nowra Road' />
  </node>
  <node id='-384809' visible='true' lat='-34.64017001267' lon='150.47903147003'>
    <tag k='addr:housenumber' v='1231' />
    <tag k='addr:street' v='Nowra Road' />
  </node>
  <node id='-384811' visible='true' lat='-34.64274573101' lon='150.47788324709'>
    <tag k='addr:housenumber' v='1254' />
    <tag k='addr:street' v='Nowra Road' />
  </node>
  <node id='-384813' visible='true' lat='-34.63895679083' lon='150.4616825627'>
    <tag k='addr:housenumber' v='102' />
    <tag k='addr:street' v='Somerset Road' />
  </node>
  <node id='-384815' visible='true' lat='-34.64457240296' lon='150.47835081857'>
    <tag k='addr:housenumber' v='4' />
    <tag k='addr:street' v='Casuarina Crescent' />
  </node>
  <node id='-384817' visible='true' lat='-34.6755133845' lon='150.49232115549'>
    <tag k='addr:housenumber' v='1673' />
    <tag k='addr:street' v='Nowra Road' />
  </node>
  <node id='-384819' visible='true' lat='-34.63644582601' lon='150.46875116514'>
    <tag k='addr:housenumber' v='56' />
    <tag k='addr:street' v='Somerset Road' />
  </node>
  <node id='-384821' visible='true' lat='-34.64143476117' lon='150.47923530879'>
    <tag k='addr:housenumber' v='1239' />
    <tag k='addr:street' v='Nowra Road' />
  </node>
  <node id='-384823' visible='true' lat='-34.61608018176' lon='150.45191235686'>
    <tag k='addr:housenumber' v='869' />
    <tag k='addr:street' v='Nowra Road' />
  </node>
  <node id='-384825' visible='true' lat='-34.64383352372' lon='150.47830856295'>
    <tag k='addr:housenumber' v='5' />
    <tag k='addr:street' v='Throsby Road' />
  </node>
  <node id='-384827' visible='true' lat='-34.634986119' lon='150.46220794128'>
    <tag k='addr:housenumber' v='1112' />
    <tag k='addr:street' v='Nowra Road' />
  </node>
  <node id='-384829' visible='true' lat='-34.64663085449' lon='150.47779336899'>
    <tag k='addr:housenumber' v='11' />
    <tag k='addr:street' v='Casuarina Crescent' />
  </node>
  <node id='-384831' visible='true' lat='-34.66742092581' lon='150.4918066247'>
    <tag k='addr:housenumber' v='48' />
    <tag k='addr:street' v='Mannings Lookout Road' />
  </node>
  <node id='-384833' visible='true' lat='-34.63916898265' lon='150.47809878448'>
    <tag k='addr:housenumber' v='1221' />
    <tag k='addr:street' v='Nowra Road' />
  </node>
  <node id='-384835' visible='true' lat='-34.64282960924' lon='150.46841654148'>
    <tag k='addr:housenumber' v='105' />
    <tag k='addr:street' v='Somerset Road' />
  </node>
  <node id='-384837' visible='true' lat='-34.66687047955' lon='150.49643023338'>
    <tag k='addr:housenumber' v='50' />
    <tag k='addr:street' v='Mannings Lookout Road' />
  </node>
  <node id='-384839' visible='true' lat='-34.65183696692' lon='150.48822830803'>
    <tag k='addr:housenumber' v='1398' />
    <tag k='addr:street' v='Nowra Road' />
  </node>
  <node id='-384841' visible='true' lat='-34.64734933947' lon='150.47776363702'>
    <tag k='addr:housenumber' v='28' />
    <tag k='addr:street' v='Gwen Road' />
  </node>
  <node id='-384843' visible='true' lat='-34.61589456108' lon='150.45101529546'>
    <tag k='addr:housenumber' v='861' />
    <tag k='addr:street' v='Nowra Road' />
  </node>
  <node id='-384845' visible='true' lat='-34.65819784628' lon='150.44479604071'>
    <tag k='addr:housenumber' v='541' />
    <tag k='addr:street' v='Redhills Road' />
  </node>
  <node id='-384847' visible='true' lat='-34.66699361149' lon='150.48786826257'>
    <tag k='addr:housenumber' v='17' />
    <tag k='addr:street' v='Mannings Lookout Road' />
  </node>
  <node id='-384849' visible='true' lat='-34.64735228765' lon='150.4490730306'>
    <tag k='addr:housenumber' v='230' />
    <tag k='addr:street' v='Somerset Road' />
  </node>
  <node id='-384851' visible='true' lat='-34.64529266713' lon='150.47840132901'>
    <tag k='addr:housenumber' v='5' />
    <tag k='addr:street' v='Casuarina Crescent' />
  </node>
  <node id='-384853' visible='true' lat='-34.63636867629' lon='150.47482568517'>
    <tag k='addr:housenumber' v='1171' />
    <tag k='addr:street' v='Nowra Road' />
  </node>
  <node id='-384855' visible='true' lat='-34.64504538341' lon='150.47750680535'>
    <tag k='addr:housenumber' v='8' />
    <tag k='addr:street' v='Casuarina Crescent' />
  </node>
  <node id='-384857' visible='true' lat='-34.66573040827' lon='150.44251145594'>
    <tag k='addr:housenumber' v='599' />
    <tag k='addr:street' v='Redhills Road' />
  </node>
  <node id='-384859' visible='true' lat='-34.62161365231' lon='150.44512050724'>
    <tag k='addr:housenumber' v='103' />
    <tag k='addr:street' v='Redhills Road' />
  </node>
  <node id='-384861' visible='true' lat='-34.61788873858' lon='150.44889235852'>
    <tag k='addr:housenumber' v='872' />
    <tag k='addr:street' v='Nowra Road' />
  </node>
  <node id='-384863' visible='true' lat='-34.6200089455' lon='150.45301525307'>
    <tag k='addr:housenumber' v='898' />
    <tag k='addr:street' v='Nowra Road' />
  </node>
  <node id='-384865' visible='true' lat='-34.64442461782' lon='150.47889331252'>
    <tag k='addr:housenumber' v='2' />
    <tag k='addr:street' v='Casuarina Crescent' />
  </node>
  <node id='-384867' visible='true' lat='-34.64636624667' lon='150.4789493033'>
    <tag k='addr:housenumber' v='6' />
    <tag k='addr:street' v='Gwen Road' />
  </node>
  <node id='-384869' visible='true' lat='-34.63964528778' lon='150.47623331083'>
    <tag k='addr:housenumber' v='1210' />
    <tag k='addr:street' v='Nowra Road' />
  </node>
  <node id='-384871' visible='true' lat='-34.64573681308' lon='150.47832186582'>
    <tag k='addr:housenumber' v='7' />
    <tag k='addr:street' v='Casuarina Crescent' />
  </node>
  <node id='-384873' visible='true' lat='-34.64085671405' lon='150.47917632736'>
    <tag k='addr:housenumber' v='1235' />
    <tag k='addr:street' v='Nowra Road' />
  </node>
  <node id='-384875' visible='true' lat='-34.6508052636' lon='150.48782897099'>
    <tag k='addr:housenumber' v='1384' />
    <tag k='addr:street' v='Nowra Road' />
  </node>
  <node id='-384877' visible='true' lat='-34.66911434096' lon='150.4874032124'>
    <tag k='addr:housenumber' v='14' />
    <tag k='addr:street' v='Mannings Lookout Road' />
  </node>
  <node id='-384879' visible='true' lat='-34.64573124556' lon='150.47909645593'>
    <tag k='addr:housenumber' v='4' />
    <tag k='addr:street' v='Gwen Road' />
  </node>
  <node id='-384881' visible='true' lat='-34.63524101888' lon='150.47044073084'>
    <tag k='addr:housenumber' v='1131' />
    <tag k='addr:street' v='Nowra Road' />
  </node>
  <node id='-384883' visible='true' lat='-34.64557252212' lon='150.477454611'>
    <tag k='addr:housenumber' v='10' />
    <tag k='addr:street' v='Casuarina Crescent' />
  </node>
  <node id='-384885' visible='true' lat='-34.61723249126' lon='150.45282625622'>
    <tag k='addr:housenumber' v='881' />
    <tag k='addr:street' v='Nowra Road' />
  </node>
  <node id='-384887' visible='true' lat='-34.6285173247' lon='150.45452251995'>
    <tag k='addr:housenumber' v='1028' />
    <tag k='addr:street' v='Nowra Road' />
  </node>
  <node id='-384889' visible='true' lat='-34.64628181425' lon='150.47833088541'>
    <tag k='addr:housenumber' v='9' />
    <tag k='addr:street' v='Casuarina Crescent' />
  </node>
  <node id='-384891' visible='true' lat='-34.66169728518' lon='150.44301089056'>
    <tag k='addr:housenumber' v='581' />
    <tag k='addr:street' v='Redhills Road' />
  </node>
  <node id='-384893' visible='true' lat='-34.65024763702' lon='150.45866600992'>
    <tag k='addr:housenumber' v='225' />
    <tag k='addr:street' v='Somerset Road' />
  </node>
  <node id='-384895' visible='true' lat='-34.64797771887' lon='150.48522912232'>
    <tag k='addr:housenumber' v='1345' />
    <tag k='addr:street' v='Nowra Road' />
  </node>
  <node id='-384897' visible='true' lat='-34.65119031794' lon='150.48797277619'>
    <tag k='addr:housenumber' v='1390' />
    <tag k='addr:street' v='Nowra Road' />
  </node>
  <node id='-384899' visible='true' lat='-34.63395843372' lon='150.47323017819'>
    <tag k='addr:housenumber' v='1161' />
    <tag k='addr:street' v='Nowra Road' />
  </node>
  <node id='-384901' visible='true' lat='-34.61609397' lon='150.44313632462'>
    <tag k='addr:housenumber' v='71' />
    <tag k='addr:street' v='Redhills Road' />
  </node>
  <node id='-384903' visible='true' lat='-34.64390075135' lon='150.47921600129'>
    <tag k='addr:housenumber' v='1264' />
    <tag k='addr:street' v='Nowra Road' />
  </node>
  <node id='-384905' visible='true' lat='-34.61261810544' lon='150.44481761229'>
    <tag k='addr:housenumber' v='777' />
    <tag k='addr:street' v='Nowra Road' />
  </node>
  <node id='-384907' visible='true' lat='-34.64091793864' lon='150.46435444854'>
    <tag k='addr:housenumber' v='106' />
    <tag k='addr:street' v='Somerset Road' />
  </node>
  <node id='-384909' visible='true' lat='-34.62941164087' lon='150.44191174537'>
    <tag k='addr:housenumber' v='195' />
    <tag k='addr:street' v='Redhills Road' />
  </node>
  <node id='-384911' visible='true' lat='-34.64497191209' lon='150.47932424355'>
    <tag k='addr:housenumber' v='1' />
    <tag k='addr:street' v='Casuarina Crescent' />
  </node>
  <node id='-384913' visible='true' lat='-34.64219857239' lon='150.45875278887'>
    <tag k='addr:housenumber' v='180' />
    <tag k='addr:street' v='Somerset Road' />
  </node>
  <node id='-384917' visible='true' lat='-34.61049955786' lon='150.45020187039'>
    <tag k='addr:housenumber' v='781' />
    <tag k='addr:street' v='Nowra Road' />
  </node>
  <node id='-384919' visible='true' lat='-34.64655468799' lon='150.47735758879'>
    <tag k='addr:housenumber' v='14' />
    <tag k='addr:street' v='Casuarina Crescent' />
  </node>
  <node id='-384921' visible='true' lat='-34.64376524695' lon='150.47872583952'>
    <tag k='addr:housenumber' v='3' />
    <tag k='addr:street' v='Throsby Road' />
  </node>
  <node id='-384923' visible='true' lat='-34.64626093009' lon='150.45794083255'>
    <tag k='addr:housenumber' v='182' />
    <tag k='addr:street' v='Somerset Road' />
  </node>
  <node id='-384925' visible='true' lat='-34.6391033202' lon='150.46902669442'>
    <tag k='addr:housenumber' v='55' />
    <tag k='addr:street' v='Somerset Road' />
  </node>
  <node id='-384927' visible='true' lat='-34.66859721122' lon='150.4883870159'>
    <tag k='addr:housenumber' v='16' />
    <tag k='addr:street' v='Mannings Lookout Road' />
  </node>
  <node id='-384929' visible='true' lat='-34.64685017118' lon='150.47911931442'>
    <tag k='addr:housenumber' v='12-16' />
    <tag k='addr:street' v='Gwen Road' />
  </node>
  <node id='-384931' visible='true' lat='-34.65930329558' lon='150.42733068515'>
    <tag k='addr:housenumber' v='490' />
    <tag k='addr:street' v='Redhills Road' />
  </node>
  <node id='-384933' visible='true' lat='-34.65248001149' lon='150.44301659454'>
    <tag k='addr:housenumber' v='491' />
    <tag k='addr:street' v='Redhills Road' />
  </node>
  <node id='-384935' visible='true' lat='-34.60660980561' lon='150.44420352575'>
    <tag k='addr:housenumber' v='777' />
    <tag k='addr:street' v='Nowra Road' />
  </node>
  <node id='-384937' visible='true' lat='-34.65145232671' lon='150.48805962405'>
    <tag k='addr:housenumber' v='1394' />
    <tag k='addr:street' v='Nowra Road' />
  </node>
  <node id='-384939' visible='true' lat='-34.64820564757' lon='150.48644370003'>
    <tag k='addr:housenumber' v='1355' />
    <tag k='addr:street' v='Nowra Road' />
  </node>
  <node id='-384941' visible='true' lat='-34.62404843551' lon='150.45302701243'>
    <tag k='addr:housenumber' v='1000' />
    <tag k='addr:street' v='Nowra Road' />
  </node>
  <node id='-384943' action='modify' visible='true' lat='-34.63121126279' lon='150.46114554602'>
    <tag k='addr:housenumber' v='1078' />
    <tag k='addr:street' v='Nowra Road' />
  </node>
  <node id='-384945' visible='true' lat='-34.64297839621' lon='150.46347031852'>
    <tag k='addr:housenumber' v='144' />
    <tag k='addr:street' v='Somerset Road' />
  </node>
  <node id='-384947' visible='true' lat='-34.64360850218' lon='150.47908901088'>
    <tag k='addr:housenumber' v='1' />
    <tag k='addr:street' v='Throsby Road' />
  </node>
  <node id='-384949' visible='true' lat='-34.64061042665' lon='150.44018765055'>
    <tag k='addr:housenumber' v='305' />
    <tag k='addr:street' v='Redhills Road' />
  </node>
  <node id='-384951' visible='true' lat='-34.66989047895' lon='150.43405001951'>
    <tag k='addr:housenumber' v='620' />
    <tag k='addr:street' v='Redhills Road' />
  </node>
  <node id='-384953' visible='true' lat='-34.64622879706' lon='150.4826024713'>
    <tag k='addr:housenumber' v='1301' />
    <tag k='addr:street' v='Nowra Road' />
  </node>
  <node id='-384955' visible='true' lat='-34.63882771016' lon='150.47706972497'>
    <tag k='addr:housenumber' v='1211' />
    <tag k='addr:street' v='Nowra Road' />
  </node>
  <node id='-384957' visible='true' lat='-34.65753162631' lon='150.43540017919'>
    <tag k='addr:housenumber' v='530' />
    <tag k='addr:street' v='Redhills Road' />
  </node>
  <node id='-384959' visible='true' lat='-34.66237654566' lon='150.43468811685'>
    <tag k='addr:housenumber' v='560' />
    <tag k='addr:street' v='Redhills Road' />
  </node>
  <node id='-384961' visible='true' lat='-34.65934561013' lon='150.4385274478'>
    <tag k='addr:housenumber' v='554' />
    <tag k='addr:street' v='Redhills Road' />
  </node>
  <node id='-384963' visible='true' lat='-34.6480805755' lon='150.48589132209'>
    <tag k='addr:housenumber' v='1351' />
    <tag k='addr:street' v='Nowra Road' />
  </node>
  <node id='-384965' visible='true' lat='-34.64812341605' lon='150.48610835241'>
    <tag k='addr:housenumber' v='1353' />
    <tag k='addr:street' v='Nowra Road' />
  </node>
  <node id='-384967' visible='true' lat='-34.64414913197' lon='150.47931406185'>
    <tag k='addr:housenumber' v='1268' />
    <tag k='addr:street' v='Nowra Road' />
  </node>
  <node id='-384969' visible='true' lat='-34.64445793471' lon='150.47943077405'>
    <tag k='addr:housenumber' v='1270' />
    <tag k='addr:street' v='Nowra Road' />
  </node>
  <node id='-384971' visible='true' lat='-34.64706183862' lon='150.47867751467'>
    <tag k='addr:housenumber' v='18' />
    <tag k='addr:street' v='Gwen Road' />
  </node>
  <node id='-384973' visible='true' lat='-34.64721108697' lon='150.47815925691'>
    <tag k='addr:housenumber' v='26' />
    <tag k='addr:street' v='Gwen Road' />
  </node>
  <node id='-384975' visible='true' lat='-34.62162886748' lon='150.46158257806'>
    <tag k='addr:housenumber' v='1021' />
    <tag k='addr:street' v='Nowra Road' />
  </node>
  <node id='-384977' visible='true' lat='-34.63295551346' lon='150.47983248487'>
    <tag k='addr:housenumber' v='21' />
    <tag k='addr:street' v='Bodycotts Lane' />
  </node>
  <node id='-384979' visible='true' lat='-34.63627389599' lon='150.48046378694'>
    <tag k='addr:housenumber' v='20' />
    <tag k='addr:street' v='Bodycotts Lane' />
  </node>
  <node id='-384981' visible='true' lat='-34.65281645822' lon='150.48670035033'>
    <tag k='addr:housenumber' v='1396' />
    <tag k='addr:street' v='Nowra Road' />
  </node>
  <node id='-384983' visible='true' lat='-34.64107504512' lon='150.47575303748'>
    <tag k='addr:housenumber' v='1252' />
    <tag k='addr:street' v='Nowra Road' />
  </node>
  <node id='-397184' action='modify' visible='true' lat='-34.6269915' lon='150.4596812' />
  <node id='-397185' action='modify' visible='true' lat='-34.6270027' lon='150.4597296' />
  <node id='-397186' action='modify' visible='true' lat='-34.6270682' lon='150.4597072' />
  <node id='-397187' action='modify' visible='true' lat='-34.6271225' lon='150.4599423' />
  <node id='-397188' action='modify' visible='true' lat='-34.6271339' lon='150.4599385' />
  <node id='-397189' action='modify' visible='true' lat='-34.6272946' lon='150.4598839' />
  <node id='-397190' action='modify' visible='true' lat='-34.627326' lon='150.4598731' />
  <node id='-397191' action='modify' visible='true' lat='-34.6273527' lon='150.4598639' />
  <node id='-397192' action='modify' visible='true' lat='-34.627358' lon='150.4598621' />
  <node id='-397193' action='modify' visible='true' lat='-34.6272993' lon='150.4596094' />
  <node id='-397194' action='modify' visible='true' lat='-34.6272287' lon='150.4596336' />
  <node id='-397195' action='modify' visible='true' lat='-34.6272221' lon='150.4596054' />
  <node id='-397196' action='modify' visible='true' lat='-34.6271377' lon='150.459632' />
  <node id='-397197' action='modify' visible='true' lat='-34.6271431' lon='150.4596638' />
  <node id='-397198' action='modify' visible='true' lat='-34.627076' lon='150.4596868' />
  <node id='-397199' action='modify' visible='true' lat='-34.6270686' lon='150.4596549' />
  <node id='-397200' action='modify' visible='true' lat='-34.6271585' lon='150.4597329' />
  <node id='-397201' action='modify' visible='true' lat='-34.6271779' lon='150.4598213' />
  <node id='-397202' action='modify' visible='true' lat='-34.6272572' lon='150.4597955' />
  <node id='-397203' action='modify' visible='true' lat='-34.6272378' lon='150.4597072' />
  <way id='-397182' action='modify' visible='true'>
    <nd ref='-397184' />
    <nd ref='-397185' />
    <nd ref='-397186' />
    <nd ref='-397187' />
    <nd ref='-397188' />
    <nd ref='-397189' />
    <nd ref='-397190' />
    <nd ref='-397191' />
    <nd ref='-397192' />
    <nd ref='-397193' />
    <nd ref='-397194' />
    <nd ref='-397195' />
    <nd ref='-397196' />
    <nd ref='-397197' />
    <nd ref='-397198' />
    <nd ref='-397199' />
    <nd ref='-397184' />
  </way>
  <way id='-397183' action='modify' visible='true'>
    <nd ref='-397200' />
    <nd ref='-397201' />
    <nd ref='-397202' />
    <nd ref='-397203' />
    <nd ref='-397200' />
    <tag k='area' v='yes' />
    <tag k='building:part' v='courtyard' />
  </way>
  <relation id='-397181' action='modify' visible='true'>
    <member type='way' ref='-397182' role='outer' />
    <member type='way' ref='-397183' role='inner' />
    <tag k='addr:housenumber' v='1020' />
    <tag k='addr:street' v='Nowra Road' />
    <tag k='building' v='house' />
    <tag k='name' v='Mambrae' />
    <tag k='type' v='multipolygon' />
  </relation>
</osm>
