<?xml version='1.0' encoding='UTF-8'?>
<osm version='0.6' generator='JOSM'>
  <node id='-317664' visible='true' lat='-34.15881424864' lon='150.70624472553'>
    <tag k='addr:housenumber' v='26' />
    <tag k='addr:street' v='Hawkey Road' />
  </node>
  <node id='-317666' visible='true' lat='-34.14935479838' lon='150.69832391578'>
    <tag k='addr:housenumber' v='115' />
    <tag k='addr:street' v='Cummins Road' />
  </node>
  <node id='-317668' visible='true' lat='-34.14280055967' lon='150.70667536278'>
    <tag k='addr:housenumber' v='40-60' />
    <tag k='addr:street' v='Carrolls Road' />
  </node>
  <node id='-317670' visible='true' lat='-34.12824446815' lon='150.73789838367'>
    <tag k='addr:housenumber' v='126' />
    <tag k='addr:street' v='Menangle Road' />
  </node>
  <node id='-317672' visible='true' lat='-34.12559683444' lon='150.73836681096'>
    <tag k='addr:housenumber' v='92' />
    <tag k='addr:street' v='Menangle Road' />
  </node>
  <node id='-317674' visible='true' lat='-34.13025395121' lon='150.69683491471'>
    <tag k='addr:housenumber' v='295' />
    <tag k='addr:street' v='Finns Road' />
  </node>
  <node id='-317676' visible='true' lat='-34.15767591574' lon='150.70460986107'>
    <tag k='addr:housenumber' v='65' />
    <tag k='addr:street' v='Quirkes Lane' />
  </node>
  <node id='-317678' visible='true' lat='-34.14657855897' lon='150.70060095996'>
    <tag k='addr:housenumber' v='106' />
    <tag k='addr:street' v='Cummins Road' />
  </node>
  <node id='-317680' visible='true' lat='-34.12858530677' lon='150.6956068449'>
    <tag k='addr:housenumber' v='305' />
    <tag k='addr:street' v='Finns Road' />
  </node>
  <node id='-317682' visible='true' lat='-34.12597067759' lon='150.73828385343'>
    <tag k='addr:housenumber' v='98' />
    <tag k='addr:street' v='Menangle Road' />
  </node>
  <node id='-317684' visible='true' lat='-34.15377232703' lon='150.71328151038'>
    <tag k='addr:housenumber' v='155' />
    <tag k='addr:street' v='Carrolls Road' />
  </node>
  <node id='-317686' visible='true' lat='-34.12810877468' lon='150.7379241624'>
    <tag k='addr:housenumber' v='124' />
    <tag k='addr:street' v='Menangle Road' />
  </node>
  <node id='-317688' visible='true' lat='-34.15805371305' lon='150.71029021408'>
    <tag k='addr:housenumber' v='203' />
    <tag k='addr:street' v='Carrolls Road' />
  </node>
  <node id='-317690' visible='true' lat='-34.16213324378' lon='150.71114341442'>
    <tag k='addr:housenumber' v='239' />
    <tag k='addr:street' v='Carrolls Road' />
  </node>
  <node id='-317692' visible='true' lat='-34.1491064839' lon='150.69930382759'>
    <tag k='addr:housenumber' v='89' />
    <tag k='addr:street' v='Cummins Road' />
  </node>
  <node id='-317694' visible='true' lat='-34.1508568017' lon='150.71714638601'>
    <tag k='addr:housenumber' v='454' />
    <tag k='addr:street' v='Menangle Road' />
  </node>
  <node id='-317696' visible='true' lat='-34.1519394977' lon='150.70456653098'>
    <tag k='addr:housenumber' v='30' />
    <tag k='addr:street' v='Cummins Road' />
  </node>
  <node id='-317698' visible='true' lat='-34.14596834308' lon='150.70294339807'>
    <tag k='addr:housenumber' v='90' />
    <tag k='addr:street' v='Cummins Road' />
  </node>
  <node id='-317700' visible='true' lat='-34.13072715569' lon='150.7038982131'>
    <tag k='addr:housenumber' v='255' />
    <tag k='addr:street' v='Finns Road' />
  </node>
  <node id='-317702' visible='true' lat='-34.15742201821' lon='150.70815023784'>
    <tag k='addr:housenumber' v='210' />
    <tag k='addr:street' v='Carrolls Road' />
  </node>
  <node id='-317704' visible='true' lat='-34.1600327618' lon='150.70927725227'>
    <tag k='addr:housenumber' v='225' />
    <tag k='addr:street' v='Carrolls Road' />
  </node>
  <node id='-317706' visible='true' lat='-34.16202617353' lon='150.70539863778'>
    <tag k='addr:housenumber' v='45' />
    <tag k='addr:street' v='Hawkey Road' />
  </node>
  <node id='-317708' visible='true' lat='-34.12783650288' lon='150.73797743877'>
    <tag k='addr:housenumber' v='120' />
    <tag k='addr:street' v='Menangle Road' />
  </node>
  <node id='-317710' visible='true' lat='-34.16768249193' lon='150.70811347361'>
    <tag k='addr:housenumber' v='320' />
    <tag k='addr:street' v='Carrolls Road' />
  </node>
  <node id='-317712' visible='true' lat='-34.1286515918' lon='150.73782100883'>
    <tag k='addr:housenumber' v='132' />
    <tag k='addr:street' v='Menangle Road' />
  </node>
  <node id='-317714' visible='true' lat='-34.15292810045' lon='150.71140543068'>
    <tag k='addr:housenumber' v='145' />
    <tag k='addr:street' v='Carrolls Road' />
  </node>
  <node id='-317716' visible='true' lat='-34.14972442665' lon='150.6963188703'>
    <tag k='addr:housenumber' v='135' />
    <tag k='addr:street' v='Cummins Road' />
  </node>
  <node id='-317718' visible='true' lat='-34.1260963752' lon='150.73826702983'>
    <tag k='addr:housenumber' v='100' />
    <tag k='addr:street' v='Menangle Road' />
  </node>
  <node id='-317720' visible='true' lat='-34.16016352942' lon='150.71061164758'>
    <tag k='addr:housenumber' v='229' />
    <tag k='addr:street' v='Carrolls Road' />
  </node>
  <node id='-317722' visible='true' lat='-34.168989958' lon='150.70770580227'>
    <tag k='addr:housenumber' v='310' />
    <tag k='addr:street' v='Carrolls Road' />
  </node>
  <node id='-317724' visible='true' lat='-34.13450349439' lon='150.70643350089'>
    <tag k='addr:housenumber' v='25' />
    <tag k='addr:street' v='Finns Road' />
  </node>
  <node id='-317726' visible='true' lat='-34.16391115435' lon='150.70652371753'>
    <tag k='addr:housenumber' v='270' />
    <tag k='addr:street' v='Carrolls Road' />
  </node>
  <node id='-317728' visible='true' lat='-34.15051776672' lon='150.69955225235'>
    <tag k='addr:housenumber' v='85' />
    <tag k='addr:street' v='Cummins Road' />
  </node>
  <node id='-317730' visible='true' lat='-34.15256264329' lon='150.70014294638'>
    <tag k='addr:housenumber' v='47' />
    <tag k='addr:street' v='Cummins Road' />
  </node>
  <node id='-317732' visible='true' lat='-34.14829239878' lon='150.69440712745'>
    <tag k='addr:housenumber' v='160' />
    <tag k='addr:street' v='Cummins Road' />
  </node>
  <node id='-317734' visible='true' lat='-34.13790597474' lon='150.70033611403'>
    <tag k='addr:housenumber' v='90' />
    <tag k='addr:street' v='Dawsons Road' />
  </node>
  <node id='-317736' visible='true' lat='-34.14726766196' lon='150.69245902047'>
    <tag k='addr:housenumber' v='170' />
    <tag k='addr:street' v='Cummins Road' />
  </node>
  <node id='-317738' visible='true' lat='-34.12905878948' lon='150.73774361235'>
    <tag k='addr:housenumber' v='138' />
    <tag k='addr:street' v='Menangle Road' />
  </node>
  <node id='-317740' visible='true' lat='-34.14154105419' lon='150.71232343765'>
    <tag k='addr:housenumber' v='30' />
    <tag k='addr:street' v='Carrolls Road' />
  </node>
  <node id='-317742' visible='true' lat='-34.14020053319' lon='150.6972849996'>
    <tag k='addr:housenumber' v='120' />
    <tag k='addr:street' v='Dawsons Road' />
  </node>
  <node id='-317744' visible='true' lat='-34.12861809331' lon='150.71830670231'>
    <tag k='addr:housenumber' v='185' />
    <tag k='addr:street' v='Woodbridge Road' />
  </node>
  <node id='-317746' visible='true' lat='-34.15794758083' lon='150.71884637753'>
    <tag k='addr:housenumber' v='520' />
    <tag k='addr:street' v='Menangle Road' />
  </node>
  <node id='-317748' visible='true' lat='-34.1322199957' lon='150.71467709893'>
    <tag k='addr:housenumber' v='285' />
    <tag k='addr:street' v='Woodbridge Road' />
  </node>
  <node id='-317750' visible='true' lat='-34.14836367521' lon='150.71409696949'>
    <tag k='addr:housenumber' v='85' />
    <tag k='addr:street' v='Carrolls Road' />
  </node>
  <node id='-317752' visible='true' lat='-34.15652650459' lon='150.72022124156'>
    <tag k='addr:housenumber' v='510' />
    <tag k='addr:street' v='Menangle Road' />
  </node>
  <node id='-317754' visible='true' lat='-34.12725913227' lon='150.73808305114'>
    <tag k='addr:housenumber' v='114' />
    <tag k='addr:street' v='Menangle Road' />
  </node>
  <node id='-317756' visible='true' lat='-34.15322506237' lon='150.69808372665'>
    <tag k='addr:housenumber' v='45' />
    <tag k='addr:street' v='Cummins Road' />
  </node>
  <node id='-317758' visible='true' lat='-34.15377744454' lon='150.7207843045'>
    <tag k='addr:housenumber' v='470' />
    <tag k='addr:street' v='Menangle Road' />
  </node>
  <node id='-317760' visible='true' lat='-34.12672896686' lon='150.73818418136'>
    <tag k='addr:housenumber' v='110' />
    <tag k='addr:street' v='Menangle Road' />
  </node>
  <node id='-317762' visible='true' lat='-34.13877526167' lon='150.70729954424'>
    <tag k='addr:housenumber' v='125' />
    <tag k='addr:street' v='Finns Road' />
  </node>
  <node id='-317764' visible='true' lat='-34.15301084281' lon='150.70865380057'>
    <tag k='addr:housenumber' v='150' />
    <tag k='addr:street' v='Carrolls Road' />
  </node>
  <node id='-317766' visible='true' lat='-34.16057906735' lon='150.70156323803'>
    <tag k='addr:housenumber' v='115' />
    <tag k='addr:street' v='Quirkes Lane' />
  </node>
  <node id='-317768' visible='true' lat='-34.15103785808' lon='150.72110246791'>
    <tag k='addr:housenumber' v='436' />
    <tag k='addr:street' v='Menangle Road' />
  </node>
  <node id='-317770' visible='true' lat='-34.16066784942' lon='150.71254016083'>
    <tag k='addr:housenumber' v='235' />
    <tag k='addr:street' v='Carrolls Road' />
  </node>
  <node id='-317772' visible='true' lat='-34.13732619073' lon='150.71451575136'>
    <tag k='addr:housenumber' v='110' />
    <tag k='addr:street' v='Finns Road' />
  </node>
  <node id='-317774' visible='true' lat='-34.14917992709' lon='150.71903953646'>
    <tag k='addr:housenumber' v='5' />
    <tag k='addr:street' v='Finns Road' />
  </node>
  <node id='-317776' visible='true' lat='-34.15179246139' lon='150.70910541199'>
    <tag k='addr:housenumber' v='130' />
    <tag k='addr:street' v='Carrolls Road' />
  </node>
  <node id='-317778' action='modify' visible='true' lat='-34.14864229534' lon='150.71208887478'>
    <tag k='addr:housenumber' v='95' />
    <tag k='addr:street' v='Carrolls Road' />
  </node>
  <node id='-317780' action='modify' visible='true' lat='-34.14864229534' lon='150.7120454561'>
    <tag k='addr:housenumber' v='97' />
    <tag k='addr:street' v='Carrolls Road' />
  </node>
  <node id='-317782' visible='true' lat='-34.14540811628' lon='150.71656362706'>
    <tag k='addr:housenumber' v='45' />
    <tag k='addr:street' v='Finns Road' />
  </node>
  <node id='-317784' visible='true' lat='-34.12851587593' lon='150.73784680836'>
    <tag k='addr:housenumber' v='130' />
    <tag k='addr:street' v='Menangle Road' />
  </node>
  <node id='-317786' visible='true' lat='-34.15968391217' lon='150.68905103607'>
    <tag k='addr:housenumber' v='205' />
    <tag k='addr:street' v='Quirkes Lane' />
  </node>
  <node id='-317788' visible='true' lat='-34.12644210046' lon='150.7382199575'>
    <tag k='addr:housenumber' v='106' />
    <tag k='addr:street' v='Menangle Road' />
  </node>
  <node id='-317790' visible='true' lat='-34.12913860383' lon='150.70103929146'>
    <tag k='addr:housenumber' v='285' />
    <tag k='addr:street' v='Finns Road' />
  </node>
  <node id='-317792' visible='true' lat='-34.15606524882' lon='150.717073064'>
    <tag k='addr:housenumber' v='514' />
    <tag k='addr:street' v='Menangle Road' />
  </node>
  <node id='-317794' visible='true' lat='-34.14271811035' lon='150.71471483763'>
    <tag k='addr:housenumber' v='25' />
    <tag k='addr:street' v='Carrolls Road' />
  </node>
  <node id='-317796' visible='true' lat='-34.15424498514' lon='150.71710437687'>
    <tag k='addr:housenumber' v='474' />
    <tag k='addr:street' v='Menangle Road' />
  </node>
  <node id='-317798' visible='true' lat='-34.15820212041' lon='150.7072854799'>
    <tag k='addr:housenumber' v='10' />
    <tag k='addr:street' v='Hawkey Road' />
  </node>
  <node id='-317800' visible='true' lat='-34.15895374509' lon='150.71009653721'>
    <tag k='addr:housenumber' v='215' />
    <tag k='addr:street' v='Carrolls Road' />
  </node>
  <node id='-317802' visible='true' lat='-34.13404095969' lon='150.69791918889'>
    <tag k='addr:housenumber' v='20' />
    <tag k='addr:street' v='Dawsons Road' />
  </node>
  <node id='-317804' visible='true' lat='-34.15636653823' lon='150.70615636725'>
    <tag k='addr:housenumber' v='35' />
    <tag k='addr:street' v='Quirkes Lane' />
  </node>
  <node id='-317806' visible='true' lat='-34.12798259189' lon='150.73794815172'>
    <tag k='addr:housenumber' v='122' />
    <tag k='addr:street' v='Menangle Road' />
  </node>
  <node id='-317808' visible='true' lat='-34.13198844998' lon='150.72764299417'>
    <tag k='addr:housenumber' v='65' />
    <tag k='addr:street' v='Woodbridge Road' />
  </node>
  <node id='-317810' visible='true' lat='-34.15838743254' lon='150.70229058265'>
    <tag k='addr:housenumber' v='105' />
    <tag k='addr:street' v='Quirkes Lane' />
  </node>
  <node id='-317812' visible='true' lat='-34.14460424314' lon='150.71319118215'>
    <tag k='addr:housenumber' v='47' />
    <tag k='addr:street' v='Carrolls Road' />
  </node>
  <node id='-317814' visible='true' lat='-34.14690470481' lon='150.69499209327'>
    <tag k='addr:housenumber' v='156' />
    <tag k='addr:street' v='Cummins Road' />
  </node>
  <node id='-317816' visible='true' lat='-34.1483661395' lon='150.68641965668'>
    <tag k='addr:housenumber' v='190' />
    <tag k='addr:street' v='Cummins Road' />
  </node>
  <node id='-317818' visible='true' lat='-34.14910708365' lon='150.70797543724'>
    <tag k='addr:housenumber' v='106' />
    <tag k='addr:street' v='Carrolls Road' />
  </node>
  <node id='-317820' visible='true' lat='-34.15260961496' lon='150.70696658883'>
    <tag k='addr:housenumber' v='10' />
    <tag k='addr:street' v='Cummins Road' />
  </node>
  <node id='-317822' visible='true' lat='-34.12750123836' lon='150.73803961069'>
    <tag k='addr:housenumber' v='116' />
    <tag k='addr:street' v='Menangle Road' />
  </node>
  <node id='-317824' visible='true' lat='-34.1527630703' lon='150.71892993913'>
    <tag k='addr:housenumber' v='460' />
    <tag k='addr:street' v='Menangle Road' />
  </node>
  <node id='-317826' visible='true' lat='-34.15889148526' lon='150.71292159762'>
    <tag k='addr:housenumber' v='205' />
    <tag k='addr:street' v='Carrolls Road' />
  </node>
  <node id='-317828' visible='true' lat='-34.14830887342' lon='150.705851528'>
    <tag k='addr:housenumber' v='100' />
    <tag k='addr:street' v='Carrolls Road' />
  </node>
  <node id='-317830' visible='true' lat='-34.15116636306' lon='150.68850535221'>
    <tag k='addr:housenumber' v='189' />
    <tag k='addr:street' v='Cummins Road' />
  </node>
  <node id='-317832' visible='true' lat='-34.15129015792' lon='150.71948572552'>
    <tag k='addr:housenumber' v='450' />
    <tag k='addr:street' v='Menangle Road' />
  </node>
  <node id='-317834' visible='true' lat='-34.14068574201' lon='150.71255559883'>
    <tag k='addr:housenumber' v='10' />
    <tag k='addr:street' v='Carrolls Road' />
  </node>
  <node id='-317836' visible='true' lat='-34.15198934754' lon='150.71348013767'>
    <tag k='addr:housenumber' v='125' />
    <tag k='addr:street' v='Carrolls Road' />
  </node>
  <node id='-317838' visible='true' lat='-34.1263674164' lon='150.69777646741'>
    <tag k='addr:housenumber' v='321' />
    <tag k='addr:street' v='Finns Road' />
  </node>
  <node id='-317840' visible='true' lat='-34.13070570717' lon='150.70131333411'>
    <tag k='addr:housenumber' v='275' />
    <tag k='addr:street' v='Finns Road' />
  </node>
  <node id='-317842' visible='true' lat='-34.12885518845' lon='150.73778232732'>
    <tag k='addr:housenumber' v='134' />
    <tag k='addr:street' v='Menangle Road' />
  </node>
  <node id='-317844' visible='true' lat='-34.15435317776' lon='150.70864633368'>
    <tag k='addr:housenumber' v='170' />
    <tag k='addr:street' v='Carrolls Road' />
  </node>
  <node id='-317846' visible='true' lat='-34.14607505679' lon='150.7134914714'>
    <tag k='addr:housenumber' v='45' />
    <tag k='addr:street' v='Carrolls Road' />
  </node>
  <node id='-317848' visible='true' lat='-34.16048445379' lon='150.70423507511'>
    <tag k='addr:housenumber' v='40' />
    <tag k='addr:street' v='Hawkey Road' />
  </node>
  <node id='-317850' visible='true' lat='-34.15488754816' lon='150.71966862224'>
    <tag k='addr:housenumber' v='490' />
    <tag k='addr:street' v='Menangle Road' />
  </node>
  <node id='-317852' visible='true' lat='-34.16242349643' lon='150.70715786896'>
    <tag k='addr:housenumber' v='260' />
    <tag k='addr:street' v='Carrolls Road' />
  </node>
  <node id='-317854' visible='true' lat='-34.15459586507' lon='150.71134938097'>
    <tag k='addr:housenumber' v='163' />
    <tag k='addr:street' v='Carrolls Road' />
  </node>
  <node id='-317856' visible='true' lat='-34.14745249434' lon='150.70763363974'>
    <tag k='addr:housenumber' v='90' />
    <tag k='addr:street' v='Carrolls Road' />
  </node>
  <node id='-317858' action='modify' visible='true' lat='-34.12478185414' lon='150.69787268766'>
    <tag k='addr:housenumber' v='325' />
    <tag k='addr:street' v='Finns Road' />
  </node>
  <node id='-317860' action='modify' visible='true' lat='-34.12478185414' lon='150.69782928123'>
    <tag k='addr:housenumber' v='323' />
    <tag k='addr:street' v='Finns Road' />
  </node>
  <node id='-317862' visible='true' lat='-34.14603249805' lon='150.70791710761'>
    <tag k='addr:housenumber' v='80' />
    <tag k='addr:street' v='Carrolls Road' />
  </node>
  <node id='-317864' visible='true' lat='-34.16086460066' lon='150.70674486042'>
    <tag k='addr:housenumber' v='25' />
    <tag k='addr:street' v='Hawkey Road' />
  </node>
  <node id='-317866' visible='true' lat='-34.12838016775' lon='150.73787260188'>
    <tag k='addr:housenumber' v='128' />
    <tag k='addr:street' v='Menangle Road' />
  </node>
  <node id='-317868' visible='true' lat='-34.16484315951' lon='150.70605242895'>
    <tag k='addr:housenumber' v='274' />
    <tag k='addr:street' v='Carrolls Road' />
  </node>
  <node id='-317870' visible='true' lat='-34.15030233443' lon='150.7070557813'>
    <tag k='addr:housenumber' v='120' />
    <tag k='addr:street' v='Carrolls Road' />
  </node>
  <node id='-317872' visible='true' lat='-34.15750273352' lon='150.71660980772'>
    <tag k='addr:housenumber' v='516' />
    <tag k='addr:street' v='Menangle Road' />
  </node>
  <node id='-317874' visible='true' lat='-34.16383416451' lon='150.71081132909'>
    <tag k='addr:housenumber' v='265' />
    <tag k='addr:street' v='Carrolls Road' />
  </node>
  <node id='-317876' visible='true' lat='-34.15034403805' lon='150.71369015147'>
    <tag k='addr:housenumber' v='115' />
    <tag k='addr:street' v='Carrolls Road' />
  </node>
  <node id='-317878' visible='true' lat='-34.1515162869' lon='150.7020065306'>
    <tag k='addr:housenumber' v='50' />
    <tag k='addr:street' v='Cummins Road' />
  </node>
  <node id='-317880' visible='true' lat='-34.14895260679' lon='150.68876006845'>
    <tag k='addr:housenumber' v='186' />
    <tag k='addr:street' v='Cummins Road' />
  </node>
  <node id='-317882' visible='true' lat='-34.15929455122' lon='150.70445004132'>
    <tag k='addr:housenumber' v='30' />
    <tag k='addr:street' v='Hawkey Road' />
  </node>
  <node id='-317884' visible='true' lat='-34.14773540433' lon='150.71941879529'>
    <tag k='addr:housenumber' v='15' />
    <tag k='addr:street' v='Finns Road' />
  </node>
  <node id='-317886' visible='true' lat='-34.15016355103' lon='150.70259684894'>
    <tag k='addr:housenumber' v='60' />
    <tag k='addr:street' v='Cummins Road' />
  </node>
  <node id='-317888' visible='true' lat='-34.12738426628' lon='150.69423068165'>
    <tag k='addr:housenumber' v='735' />
    <tag k='addr:street' v='Remembrance Driveway' />
  </node>
  <node id='-317890' visible='true' lat='-34.14725926815' lon='150.70115201483'>
    <tag k='addr:housenumber' v='100' />
    <tag k='addr:street' v='Cummins Road' />
  </node>
  <node id='-317892' visible='true' lat='-34.14759022477' lon='150.71754747742'>
    <tag k='addr:housenumber' v='35' />
    <tag k='addr:street' v='Finns Road' />
  </node>
  <node id='-317894' visible='true' lat='-34.15004247165' lon='150.68348779842'>
    <tag k='addr:housenumber' v='195' />
    <tag k='addr:street' v='Cummins Road' />
  </node>
  <node id='-317896' visible='true' lat='-34.15513510444' lon='150.70822209324'>
    <tag k='addr:housenumber' v='174' />
    <tag k='addr:street' v='Carrolls Road' />
  </node>
  <node id='-317898' visible='true' lat='-34.14859488435' lon='150.70244137647'>
    <tag k='addr:housenumber' v='80' />
    <tag k='addr:street' v='Cummins Road' />
  </node>
  <node id='-317900' visible='true' lat='-34.15600026243' lon='150.70818000499'>
    <tag k='addr:housenumber' v='190' />
    <tag k='addr:street' v='Carrolls Road' />
  </node>
  <node id='-317902' visible='true' lat='-34.15139931375' lon='150.69982027262'>
    <tag k='addr:housenumber' v='75' />
    <tag k='addr:street' v='Cummins Road' />
  </node>
  <node id='-317904' visible='true' lat='-34.12571955336' lon='150.73831806364'>
    <tag k='addr:housenumber' v='94' />
    <tag k='addr:street' v='Menangle Road' />
  </node>
  <node id='-317906' visible='true' lat='-34.12766600502' lon='150.73800831003'>
    <tag k='addr:housenumber' v='118' />
    <tag k='addr:street' v='Menangle Road' />
  </node>
  <node id='-317908' visible='true' lat='-34.14921758264' lon='150.7213102015'>
    <tag k='addr:housenumber' v='3' />
    <tag k='addr:street' v='Finns Road' />
  </node>
  <node id='-317910' visible='true' lat='-34.1680574097' lon='150.71050091556'>
    <tag k='addr:housenumber' v='305' />
    <tag k='addr:street' v='Carrolls Road' />
  </node>
  <node id='-317912' visible='true' lat='-34.15100960565' lon='150.69707619779'>
    <tag k='addr:housenumber' v='125' />
    <tag k='addr:street' v='Cummins Road' />
  </node>
  <node id='-317914' visible='true' lat='-34.12919378752' lon='150.73771921683'>
    <tag k='addr:housenumber' v='140' />
    <tag k='addr:street' v='Menangle Road' />
  </node>
  <node id='-317916' visible='true' lat='-34.15559319404' lon='150.72074272903'>
    <tag k='addr:housenumber' v='486' />
    <tag k='addr:street' v='Menangle Road' />
  </node>
  <node id='-317918' visible='true' lat='-34.12584514252' lon='150.73830098872'>
    <tag k='addr:housenumber' v='96' />
    <tag k='addr:street' v='Menangle Road' />
  </node>
  <node id='-317920' visible='true' lat='-34.150165987' lon='150.72133555091'>
    <tag k='addr:housenumber' v='430' />
    <tag k='addr:street' v='Menangle Road' />
  </node>
  <node id='-317922' visible='true' lat='-34.15976547677' lon='150.70774751868'>
    <tag k='addr:housenumber' v='15' />
    <tag k='addr:street' v='Hawkey Road' />
  </node>
  <node id='-317924' visible='true' lat='-34.12625359466' lon='150.73824558256'>
    <tag k='addr:housenumber' v='104' />
    <tag k='addr:street' v='Menangle Road' />
  </node>
  <node id='-317926' visible='true' lat='-34.1538137843' lon='150.70221061388'>
    <tag k='addr:housenumber' v='35' />
    <tag k='addr:street' v='Cummins Road' />
  </node>
  <node id='-317928' visible='true' lat='-34.15477149954' lon='150.70484531349'>
    <tag k='addr:housenumber' v='30' />
    <tag k='addr:street' v='Quirkes Lane' />
  </node>
  <node id='-317930' visible='true' lat='-34.14645885338' lon='150.68947855918'>
    <tag k='addr:housenumber' v='995' />
    <tag k='addr:street' v='Remembrance Driveway' />
  </node>
  <node id='-317932' visible='true' lat='-34.14688287304' lon='150.72116110334'>
    <tag k='addr:housenumber' v='30' />
    <tag k='addr:street' v='Finns Road' />
  </node>
  <node id='-317934' visible='true' lat='-34.14183062066' lon='150.72344812356'>
    <tag k='addr:housenumber' v='310' />
    <tag k='addr:street' v='Menangle Road' />
  </node>
  <node id='-317936' visible='true' lat='-34.12546665489' lon='150.73834943503'>
    <tag k='addr:housenumber' v='90' />
    <tag k='addr:street' v='Menangle Road' />
  </node>
  <node id='-317938' visible='true' lat='-34.14743108426' lon='150.69651162397'>
    <tag k='addr:housenumber' v='140' />
    <tag k='addr:street' v='Cummins Road' />
  </node>
  <node id='-317940' visible='true' lat='-34.1450605992' lon='150.69574060315'>
    <tag k='addr:housenumber' v='130' />
    <tag k='addr:street' v='Cummins Road' />
  </node>
  <node id='-317942' visible='true' lat='-34.15480506387' lon='150.69549709743'>
    <tag k='addr:housenumber' v='80' />
    <tag k='addr:street' v='Burrells Road' />
  </node>
  <node id='-317944' visible='true' lat='-34.15505535145' lon='150.69655235669'>
    <tag k='addr:housenumber' v='70' />
    <tag k='addr:street' v='Burrells Road' />
  </node>
  <node id='-317946' visible='true' lat='-34.15518661521' lon='150.70059733724'>
    <tag k='addr:housenumber' v='20' />
    <tag k='addr:street' v='Burrells Road' />
  </node>
  <node id='-317948' visible='true' lat='-34.1555838606' lon='150.70265235945'>
    <tag k='addr:housenumber' v='10' />
    <tag k='addr:street' v='Burrells Road' />
  </node>
  <node id='-317950' visible='true' lat='-34.15531533847' lon='150.69929768156'>
    <tag k='addr:housenumber' v='30' />
    <tag k='addr:street' v='Burrells Road' />
  </node>
  <node id='-317952' visible='true' lat='-34.15767688735' lon='150.69957858605'>
    <tag k='addr:housenumber' v='35' />
    <tag k='addr:street' v='Burrells Road' />
  </node>
  <node id='-317954' visible='true' lat='-34.15891739542' lon='150.69998317271'>
    <tag k='addr:housenumber' v='80' />
    <tag k='addr:street' v='Quirkes Lane' />
  </node>
  <node id='-317956' visible='true' lat='-34.15791737722' lon='150.69731822741'>
    <tag k='addr:housenumber' v='55' />
    <tag k='addr:street' v='Burrells Road' />
  </node>
  <node id='-317958' visible='true' lat='-34.15665431575' lon='150.69611512208'>
    <tag k='addr:housenumber' v='60' />
    <tag k='addr:street' v='Burrells Road' />
  </node>
  <node id='-317960' visible='true' lat='-34.15916116144' lon='150.69601113773'>
    <tag k='addr:housenumber' v='120' />
    <tag k='addr:street' v='Quirkes Lane' />
  </node>
  <node id='-317962' visible='true' lat='-34.15633641467' lon='150.69727837515'>
    <tag k='addr:housenumber' v='50' />
    <tag k='addr:street' v='Burrells Road' />
  </node>
  <node id='-317964' visible='true' lat='-34.15549130149' lon='150.69822830002'>
    <tag k='addr:housenumber' v='40' />
    <tag k='addr:street' v='Burrells Road' />
  </node>
  <node id='-317966' visible='true' lat='-34.15690216437' lon='150.70123890611'>
    <tag k='addr:housenumber' v='15' />
    <tag k='addr:street' v='Burrells Road' />
  </node>
  <node id='-317968' visible='true' lat='-34.15027533579' lon='150.69511254823'>
    <tag k='addr:housenumber' v='145' />
    <tag k='addr:street' v='Cummins Road' />
  </node>
  <node id='-317970' visible='true' lat='-34.14780812821' lon='150.69070399977'>
    <tag k='addr:housenumber' v='180' />
    <tag k='addr:street' v='Cummins Road' />
  </node>
  <node id='-317972' visible='true' lat='-34.14837931016' lon='150.68969673366'>
    <tag k='addr:housenumber' v='184' />
    <tag k='addr:street' v='Cummins Road' />
  </node>
  <node id='-317974' visible='true' lat='-34.15503906441' lon='150.71417509192'>
    <tag k='addr:housenumber' v='165' />
    <tag k='addr:street' v='Carrolls Road' />
  </node>
  <node id='-317976' visible='true' lat='-34.15565033284' lon='150.71242206558'>
    <tag k='addr:housenumber' v='175' />
    <tag k='addr:street' v='Carrolls Road' />
  </node>
  <node id='-317978' visible='true' lat='-34.1566128953' lon='150.71109640581'>
    <tag k='addr:housenumber' v='185' />
    <tag k='addr:street' v='Carrolls Road' />
  </node>
  <node id='-317980' visible='true' lat='-34.15729339273' lon='150.71289238591'>
    <tag k='addr:housenumber' v='195' />
    <tag k='addr:street' v='Carrolls Road' />
  </node>
  <node id='-317982' visible='true' lat='-34.16570764938' lon='150.71095736847'>
    <tag k='addr:housenumber' v='285' />
    <tag k='addr:street' v='Carrolls Road' />
  </node>
  <node id='-317984' visible='true' lat='-34.13067441043' lon='150.73858451916'>
    <tag k='addr:housenumber' v='10' />
    <tag k='addr:street' v='Haines Place' />
  </node>
  <node id='-317986' visible='true' lat='-34.12834441304' lon='150.74094871343'>
    <tag k='addr:housenumber' v='5' />
    <tag k='addr:street' v='Riversford Close' />
  </node>
  <node id='-317988' visible='true' lat='-34.12758768049' lon='150.74018941608'>
    <tag k='addr:housenumber' v='18' />
    <tag k='addr:street' v='Station Street' />
  </node>
  <node id='-317990' visible='true' lat='-34.12970629827' lon='150.73836780217'>
    <tag k='addr:housenumber' v='139' />
    <tag k='addr:street' v='Menangle Road' />
  </node>
  <node id='-317992' visible='true' lat='-34.12757409046' lon='150.73998152894'>
    <tag k='addr:housenumber' v='16' />
    <tag k='addr:street' v='Station Street' />
  </node>
  <node id='-317994' visible='true' lat='-34.13123649774' lon='150.73846118445'>
    <tag k='addr:housenumber' v='12' />
    <tag k='addr:street' v='Haines Place' />
  </node>
  <node id='-317996' visible='true' lat='-34.13845401118' lon='150.73359443808'>
    <tag k='addr:housenumber' v='235' />
    <tag k='addr:street' v='Menangle Road' />
  </node>
  <node id='-317998' visible='true' lat='-34.13134732789' lon='150.74037527884'>
    <tag k='addr:housenumber' v='22' />
    <tag k='addr:street' v='Haines Place' />
  </node>
  <node id='-318000' visible='true' lat='-34.13066592724' lon='150.74083203099'>
    <tag k='addr:housenumber' v='11' />
    <tag k='addr:street' v='Haines Place' />
  </node>
  <node id='-318002' visible='true' lat='-34.12970517978' lon='150.740926658'>
    <tag k='addr:housenumber' v='5' />
    <tag k='addr:street' v='Haines Place' />
  </node>
  <node id='-318004' visible='true' lat='-34.12871050205' lon='150.73851996809'>
    <tag k='addr:housenumber' v='129' />
    <tag k='addr:street' v='Menangle Road' />
  </node>
  <node id='-318006' visible='true' lat='-34.12838592182' lon='150.73858612724'>
    <tag k='addr:housenumber' v='125' />
    <tag k='addr:street' v='Menangle Road' />
  </node>
  <node id='-318008' visible='true' lat='-34.12823229181' lon='150.73913486992'>
    <tag k='addr:housenumber' v='12' />
    <tag k='addr:street' v='Riversford Close' />
  </node>
  <node id='-318010' visible='true' lat='-34.12923639455' lon='150.73876574248'>
    <tag k='addr:housenumber' v='3' />
    <tag k='addr:street' v='Sulman Place' />
  </node>
  <node id='-318012' visible='true' lat='-34.12885591798' lon='150.7395456395'>
    <tag k='addr:housenumber' v='19' />
    <tag k='addr:street' v='Riversford Close' />
  </node>
  <node id='-318014' visible='true' lat='-34.12976972468' lon='150.73949630365'>
    <tag k='addr:housenumber' v='7' />
    <tag k='addr:street' v='St James Avenue' />
  </node>
  <node id='-318016' visible='true' lat='-34.13006696085' lon='150.73829812205'>
    <tag k='addr:housenumber' v='141' />
    <tag k='addr:street' v='Menangle Road' />
  </node>
  <node id='-318018' visible='true' lat='-34.12750732145' lon='150.73949380898'>
    <tag k='addr:housenumber' v='10' />
    <tag k='addr:street' v='Station Street' />
  </node>
  <node id='-318020' visible='true' lat='-34.12840532626' lon='150.73967296702'>
    <tag k='addr:housenumber' v='15' />
    <tag k='addr:street' v='Riversford Close' />
  </node>
  <node id='-318022' visible='true' lat='-34.12752652317' lon='150.73964911074'>
    <tag k='addr:housenumber' v='12' />
    <tag k='addr:street' v='Station Street' />
  </node>
  <node id='-318024' visible='true' lat='-34.12873083031' lon='150.73974123234'>
    <tag k='addr:housenumber' v='17' />
    <tag k='addr:street' v='Riversford Close' />
  </node>
  <node id='-318026' visible='true' lat='-34.13097391323' lon='150.74059961809'>
    <tag k='addr:housenumber' v='24' />
    <tag k='addr:street' v='Haines Place' />
  </node>
  <node id='-318028' visible='true' lat='-34.13134304641' lon='150.7390386133'>
    <tag k='addr:housenumber' v='16' />
    <tag k='addr:street' v='Haines Place' />
  </node>
  <node id='-318030' visible='true' lat='-34.12906339571' lon='150.73841528595'>
    <tag k='addr:housenumber' v='133' />
    <tag k='addr:street' v='Menangle Road' />
  </node>
  <node id='-318032' visible='true' lat='-34.12926334696' lon='150.7383702552'>
    <tag k='addr:housenumber' v='135' />
    <tag k='addr:street' v='Menangle Road' />
  </node>
  <node id='-318034' visible='true' lat='-34.13073197875' lon='150.73815885177'>
    <tag k='addr:housenumber' v='147' />
    <tag k='addr:street' v='Menangle Road' />
  </node>
  <node id='-318036' visible='true' lat='-34.12966193686' lon='150.73877711271'>
    <tag k='addr:housenumber' v='3' />
    <tag k='addr:street' v='St James Avenue' />
  </node>
  <node id='-318038' visible='true' lat='-34.12991240957' lon='150.74140150705'>
    <tag k='addr:housenumber' v='7' />
    <tag k='addr:street' v='Haines Place' />
  </node>
  <node id='-318040' visible='true' lat='-34.12769771548' lon='150.74091080423'>
    <tag k='addr:housenumber' v='22' />
    <tag k='addr:street' v='Station Street' />
  </node>
  <node id='-318042' visible='true' lat='-34.12799060263' lon='150.74038498216'>
    <tag k='addr:housenumber' v='2' />
    <tag k='addr:street' v='Riversford Close' />
  </node>
  <node id='-318044' action='modify' visible='true' lat='-34.13084273477' lon='150.73949016215'>
    <tag k='addr:housenumber' v='4' />
    <tag k='addr:street' v='Haines Place' />
  </node>
  <node id='-318046' action='modify' visible='true' lat='-34.13084273477' lon='150.73953357169'>
    <tag k='addr:housenumber' v='4A' />
    <tag k='addr:street' v='Haines Place' />
  </node>
  <node id='-318048' visible='true' lat='-34.13027157173' lon='150.73894371503'>
    <tag k='addr:housenumber' v='6' />
    <tag k='addr:street' v='St James Avenue' />
  </node>
  <node id='-318050' visible='true' lat='-34.13023214854' lon='150.74024525301'>
    <tag k='addr:housenumber' v='13' />
    <tag k='addr:street' v='St James Avenue' />
  </node>
  <node id='-318052' visible='true' lat='-34.12742061917' lon='150.73917399296'>
    <tag k='addr:housenumber' v='6' />
    <tag k='addr:street' v='Station Street' />
  </node>
  <node id='-318054' visible='true' lat='-34.1293629969' lon='150.7394687115'>
    <tag k='addr:housenumber' v='4' />
    <tag k='addr:street' v='Sulman Place' />
  </node>
  <node id='-318056' visible='true' lat='-34.130717084' lon='150.73886006111'>
    <tag k='addr:housenumber' v='8' />
    <tag k='addr:street' v='Haines Place' />
  </node>
  <node id='-318058' visible='true' lat='-34.12798009051' lon='150.74097631071'>
    <tag k='addr:housenumber' v='1' />
    <tag k='addr:street' v='Riversford Close' />
  </node>
  <node id='-318060' visible='true' lat='-34.12799697225' lon='150.73933555745'>
    <tag k='addr:housenumber' v='10' />
    <tag k='addr:street' v='Riversford Close' />
  </node>
  <node id='-318062' visible='true' lat='-34.12218198824' lon='150.74327330885'>
    <tag k='addr:housenumber' v='45' />
    <tag k='addr:street' v='Stevens Road' />
  </node>
  <node id='-318064' visible='true' lat='-34.12973301563' lon='150.73921562981'>
    <tag k='addr:housenumber' v='5' />
    <tag k='addr:street' v='St James Avenue' />
  </node>
  <node id='-318066' visible='true' lat='-34.12537036481' lon='150.74703115531'>
    <tag k='addr:housenumber' v='1370' />
    <tag k='addr:street' v='Moreton Park Road' />
  </node>
  <node id='-318068' visible='true' lat='-34.13050977915' lon='150.73820432142'>
    <tag k='addr:housenumber' v='145' />
    <tag k='addr:street' v='Menangle Road' />
  </node>
  <node id='-318070' visible='true' lat='-34.13068938179' lon='150.73990866256'>
    <tag k='addr:housenumber' v='14' />
    <tag k='addr:street' v='St James Avenue' />
  </node>
  <node id='-318072' visible='true' lat='-34.12825148502' lon='150.73861323994'>
    <tag k='addr:housenumber' v='123' />
    <tag k='addr:street' v='Menangle Road' />
  </node>
  <node id='-318074' visible='true' lat='-34.13028757019' lon='150.73824982478'>
    <tag k='addr:housenumber' v='143' />
    <tag k='addr:street' v='Menangle Road' />
  </node>
  <node id='-318076' visible='true' lat='-34.13489013284' lon='150.73630685434'>
    <tag k='addr:housenumber' v='195' />
    <tag k='addr:street' v='Menangle Road' />
  </node>
  <node id='-318078' visible='true' lat='-34.12854493033' lon='150.74087859484'>
    <tag k='addr:housenumber' v='7' />
    <tag k='addr:street' v='Riversford Close' />
  </node>
  <node id='-318080' visible='true' lat='-34.14728388613' lon='150.72636731008'>
    <tag k='addr:housenumber' v='345' />
    <tag k='addr:street' v='Menangle Road' />
  </node>
  <node id='-318082' visible='true' lat='-34.1279112391' lon='150.73984657196'>
    <tag k='addr:housenumber' v='6' />
    <tag k='addr:street' v='Riversford Close' />
  </node>
  <node id='-318084' visible='true' lat='-34.12843197949' lon='150.73994267272'>
    <tag k='addr:housenumber' v='13' />
    <tag k='addr:street' v='Riversford Close' />
  </node>
  <node id='-318086' visible='true' lat='-34.1284262077' lon='150.73905435987'>
    <tag k='addr:housenumber' v='14' />
    <tag k='addr:street' v='Riversford Close' />
  </node>
  <node id='-318088' visible='true' lat='-34.13152759171' lon='150.74008461262'>
    <tag k='addr:housenumber' v='20A' />
    <tag k='addr:street' v='Haines Place' />
  </node>
  <node id='-318090' visible='true' lat='-34.12787600949' lon='150.73954326411'>
    <tag k='addr:housenumber' v='8' />
    <tag k='addr:street' v='Riversford Close' />
  </node>
  <node id='-318092' visible='true' lat='-34.12796397948' lon='150.74012158589'>
    <tag k='addr:housenumber' v='4' />
    <tag k='addr:street' v='Riversford Close' />
  </node>
  <node id='-318094' visible='true' lat='-34.1274881941' lon='150.73934995002'>
    <tag k='addr:housenumber' v='8' />
    <tag k='addr:street' v='Station Street' />
  </node>
  <node id='-318096' visible='true' lat='-34.12772242778' lon='150.74116702046'>
    <tag k='addr:housenumber' v='24' />
    <tag k='addr:street' v='Station Street' />
  </node>
  <node id='-318098' visible='true' lat='-34.13034421501' lon='150.74109359149'>
    <tag k='addr:housenumber' v='9' />
    <tag k='addr:street' v='Haines Place' />
  </node>
  <node id='-318100' visible='true' lat='-34.13023352915' lon='150.73867614723'>
    <tag k='addr:housenumber' v='4' />
    <tag k='addr:street' v='St James Avenue' />
  </node>
  <node id='-318102' visible='true' lat='-34.12735517396' lon='150.73873120219'>
    <tag k='addr:housenumber' v='2' />
    <tag k='addr:street' v='Station Street' />
  </node>
  <node id='-318104' visible='true' lat='-34.13098970284' lon='150.73810607181'>
    <tag k='addr:housenumber' v='149' />
    <tag k='addr:street' v='Menangle Road' />
  </node>
  <node id='-318106' visible='true' lat='-34.12815343457' lon='150.74093339013'>
    <tag k='addr:housenumber' v='3' />
    <tag k='addr:street' v='Riversford Close' />
  </node>
  <node id='-318108' visible='true' lat='-34.12948526073' lon='150.73839799428'>
    <tag k='addr:housenumber' v='137' />
    <tag k='addr:street' v='Menangle Road' />
  </node>
  <node id='-318110' visible='true' lat='-34.13076259236' lon='150.73915075507'>
    <tag k='addr:housenumber' v='6' />
    <tag k='addr:street' v='Haines Place' />
  </node>
  <node id='-318112' visible='true' lat='-34.12867182319' lon='150.7389692057'>
    <tag k='addr:housenumber' v='16' />
    <tag k='addr:street' v='Riversford Close' />
  </node>
  <node id='-318114' visible='true' lat='-34.12755163944' lon='150.73981481423'>
    <tag k='addr:housenumber' v='14' />
    <tag k='addr:street' v='Station Street' />
  </node>
  <node id='-318116' visible='true' lat='-34.1312475425' lon='150.73806809182'>
    <tag k='addr:housenumber' v='151' />
    <tag k='addr:street' v='Menangle Road' />
  </node>
  <node id='-318118' visible='true' lat='-34.1186013171' lon='150.74333262879'>
    <tag k='addr:housenumber' v='13' />
    <tag k='addr:street' v='Menangle Road' />
  </node>
  <node id='-318120' visible='true' lat='-34.13140364043' lon='150.73940591933'>
    <tag k='addr:housenumber' v='18' />
    <tag k='addr:street' v='Haines Place' />
  </node>
  <node id='-318122' visible='true' lat='-34.1398744482' lon='150.73664374507'>
    <tag k='addr:housenumber' v='249' />
    <tag k='addr:street' v='Menangle Road' />
  </node>
  <node id='-318124' visible='true' lat='-34.12995451757' lon='150.7405059982'>
    <tag k='addr:housenumber' v='3' />
    <tag k='addr:street' v='Haines Place' />
  </node>
  <node id='-318126' visible='true' lat='-34.12880668843' lon='150.73917317039'>
    <tag k='addr:housenumber' v='18' />
    <tag k='addr:street' v='Riversford Close' />
  </node>
  <node id='-318128' action='modify' visible='true' lat='-34.12308601217' lon='150.74098067537'>
    <tag k='addr:housenumber' v='15' />
    <tag k='addr:street' v='Menangle Road' />
  </node>
  <node id='-318130' action='modify' visible='true' lat='-34.12308601217' lon='150.74093726981'>
    <tag k='addr:housenumber' v='31' />
    <tag k='addr:street' v='Menangle Road' />
  </node>
  <node id='-318132' visible='true' lat='-34.13043006529' lon='150.73958921035'>
    <tag k='addr:housenumber' v='10-12' />
    <tag k='addr:street' v='St James Avenue' />
  </node>
  <node id='-318134' visible='true' lat='-34.13130866676' lon='150.73874586866'>
    <tag k='addr:housenumber' v='14' />
    <tag k='addr:street' v='Haines Place' />
  </node>
  <node id='-318136' visible='true' lat='-34.13983154317' lon='150.7356760852'>
    <tag k='addr:housenumber' v='251' />
    <tag k='addr:street' v='Menangle Road' />
  </node>
  <node id='-318138' visible='true' lat='-34.12763379656' lon='150.7404338334'>
    <tag k='addr:housenumber' v='20' />
    <tag k='addr:street' v='Station Street' />
  </node>
  <node id='-318140' visible='true' lat='-34.12903732374' lon='150.74022919803'>
    <tag k='addr:housenumber' v='131' />
    <tag k='addr:street' v='Menangle Road' />
  </node>
  <node id='-318142' visible='true' lat='-34.13032136244' lon='150.73923540544'>
    <tag k='addr:housenumber' v='8' />
    <tag k='addr:street' v='St James Avenue' />
  </node>
  <node id='-318144' visible='true' lat='-34.12851999951' lon='150.73855911854'>
    <tag k='addr:housenumber' v='127' />
    <tag k='addr:street' v='Menangle Road' />
  </node>
  <node id='-318146' action='modify' visible='true' lat='-34.13721714018' lon='150.74615780563'>
    <tag k='addr:housenumber' v='730' />
    <tag k='addr:street' v='Moreton Park Road' />
  </node>
  <node id='-318148' action='modify' visible='true' lat='-34.13721714018' lon='150.74611439282'>
    <tag k='addr:housenumber' v='710' />
    <tag k='addr:street' v='Moreton Park Road' />
  </node>
  <node id='-318150' visible='true' lat='-34.13140630297' lon='150.73979674374'>
    <tag k='addr:housenumber' v='20' />
    <tag k='addr:street' v='Haines Place' />
  </node>
  <node id='-318152' visible='true' lat='-34.12906535374' lon='150.73910084029'>
    <tag k='addr:housenumber' v='5' />
    <tag k='addr:street' v='Sulman Place' />
  </node>
  <node id='-318154' visible='true' lat='-34.12926510947' lon='150.74085932764'>
    <tag k='addr:housenumber' v='9-11' />
    <tag k='addr:street' v='St James Avenue' />
  </node>
  <node id='-318156' visible='true' lat='-34.12811242655' lon='150.73863601012'>
    <tag k='addr:housenumber' v='121' />
    <tag k='addr:street' v='Menangle Road' />
  </node>
  <node id='-318160' visible='true' lat='-34.12739515145' lon='150.73899455428'>
    <tag k='addr:housenumber' v='4' />
    <tag k='addr:street' v='Station Street' />
  </node>
  <node id='-318162' visible='true' lat='-34.12819846352' lon='150.74153933527'>
    <tag k='addr:housenumber' v='26' />
    <tag k='addr:street' v='Station Street' />
  </node>
  <node id='-318164' visible='true' lat='-34.12823520761' lon='150.74222292773'>
    <tag k='addr:housenumber' v='28' />
    <tag k='addr:street' v='Station Street' />
  </node>
  <node id='-318312' visible='true' lat='-34.15464750133' lon='150.72348725983'>
    <tag k='addr:housenumber' v='475' />
    <tag k='addr:street' v='Menangle Road' />
  </node>
  <node id='-318314' visible='true' lat='-34.15557385484' lon='150.74197722668'>
    <tag k='addr:housenumber' v='549' />
    <tag k='addr:street' v='Moreton Park Road' />
  </node>
  <node id='-318316' visible='true' lat='-34.15555069868' lon='150.72341049315'>
    <tag k='addr:housenumber' v='485' />
    <tag k='addr:street' v='Menangle Road' />
  </node>
  <node id='-318318' visible='true' lat='-34.15934610178' lon='150.74905889289'>
    <tag k='addr:housenumber' v='530' />
    <tag k='addr:street' v='Moreton Park Road' />
  </node>
  <node id='-318320' visible='true' lat='-34.15683588053' lon='150.72811504709'>
    <tag k='addr:housenumber' v='495' />
    <tag k='addr:street' v='Menangle Road' />
  </node>
  <node id='-318322' visible='true' lat='-34.15798014151' lon='150.74200889848'>
    <tag k='addr:housenumber' v='545' />
    <tag k='addr:street' v='Moreton Park Road' />
  </node>
  <node id='-318324' visible='true' lat='-34.15221865184' lon='150.74145124278'>
    <tag k='addr:housenumber' v='565' />
    <tag k='addr:street' v='Moreton Park Road' />
  </node>
  <node id='-318326' visible='true' lat='-34.14812322114' lon='150.74525971891'>
    <tag k='addr:housenumber' v='610' />
    <tag k='addr:street' v='Moreton Park Road' />
  </node>
  <node id='-318328' visible='true' lat='-34.15634434768' lon='150.74863077485'>
    <tag k='addr:housenumber' v='560' />
    <tag k='addr:street' v='Moreton Park Road' />
  </node>
  <node id='-318412' visible='true' lat='-34.14449858684' lon='150.6975323964'>
    <tag k='addr:housenumber' v='126' />
    <tag k='addr:street' v='Cummins Road' />
  </node>
  <node id='-318414' visible='true' lat='-34.14755189904' lon='150.69807305965'>
    <tag k='addr:housenumber' v='118' />
    <tag k='addr:street' v='Cummins Road' />
  </node>
  <node id='-318416' visible='true' lat='-34.14557283238' lon='150.69967318798'>
    <tag k='addr:housenumber' v='110' />
    <tag k='addr:street' v='Cummins Road' />
  </node>
  <node id='-318418' visible='true' lat='-34.15152990468' lon='150.69169952159'>
    <tag k='addr:housenumber' v='165' />
    <tag k='addr:street' v='Cummins Road' />
  </node>
  <node id='-318420' visible='true' lat='-34.15819292508' lon='150.69508775547'>
    <tag k='addr:housenumber' v='75' />
    <tag k='addr:street' v='Burrells Road' />
  </node>
  <node id='-318422' visible='true' lat='-34.15194961175' lon='150.69434270869'>
    <tag k='addr:housenumber' v='149' />
    <tag k='addr:street' v='Cummins Road' />
  </node>
  <node id='-318424' visible='true' lat='-34.15783719474' lon='150.69298460819'>
    <tag k='addr:housenumber' v='85' />
    <tag k='addr:street' v='Burrells Road' />
  </node>
  <node id='-318426' visible='true' lat='-34.15419727116' lon='150.68910639194'>
    <tag k='addr:housenumber' v='110' />
    <tag k='addr:street' v='Burrells Road' />
  </node>
  <node id='-318428' visible='true' lat='-34.1560800619' lon='150.6912202662'>
    <tag k='addr:housenumber' v='120' />
    <tag k='addr:street' v='Burrells Road' />
  </node>
  <node id='-318430' visible='true' lat='-34.15506557112' lon='150.69439252301'>
    <tag k='addr:housenumber' v='90' />
    <tag k='addr:street' v='Burrells Road' />
  </node>
  <node id='-318432' visible='true' lat='-34.15435153071' lon='150.69287070837'>
    <tag k='addr:housenumber' v='100' />
    <tag k='addr:street' v='Burrells Road' />
  </node>
  <node id='-318434' visible='true' lat='-34.15656275682' lon='150.68833173908'>
    <tag k='addr:housenumber' v='130' />
    <tag k='addr:street' v='Burrells Road' />
  </node>
  <node id='-318436' visible='true' lat='-34.13470508729' lon='150.73645146291'>
    <tag k='addr:housenumber' v='193' />
    <tag k='addr:street' v='Menangle Road' />
  </node>
  <node id='-318438' visible='true' lat='-34.14714193953' lon='150.73112791599'>
    <tag k='addr:housenumber' v='465' />
    <tag k='addr:street' v='Menangle Road' />
  </node>
  <node id='-318440' action='modify' visible='true' lat='-34.13290901793' lon='150.73821230058'>
    <tag k='addr:housenumber' v='153' />
    <tag k='addr:street' v='Menangle Road' />
  </node>
  <node id='-318446' visible='true' lat='-34.11645441879' lon='150.7197624286'>
    <tag k='addr:housenumber' v='60' />
    <tag k='addr:street' v='Woodbridge Road' />
  </node>
  <node id='-318448' visible='true' lat='-34.13327317927' lon='150.74023188545'>
    <tag k='addr:housenumber' v='30' />
    <tag k='addr:street' v='Stevens Road' />
  </node>
  <node id='-318452' visible='true' lat='-34.1686669596' lon='150.70600319325'>
    <tag k='addr:housenumber' v='300' />
    <tag k='addr:street' v='Carrolls Road' />
  </node>
  <node id='-318454' visible='true' lat='-34.1641813195' lon='150.6943996015'>
    <tag k='addr:housenumber' v='135' />
    <tag k='addr:street' v='Quirkes Lane' />
  </node>
  <node id='-318456' visible='true' lat='-34.16413733497' lon='150.7043364734'>
    <tag k='addr:housenumber' v='65' />
    <tag k='addr:street' v='Hawkey Road' />
  </node>
  <node id='-318458' visible='true' lat='-34.16243341023' lon='150.70092146946'>
    <tag k='addr:housenumber' v='50' />
    <tag k='addr:street' v='Hawkey Road' />
  </node>
  <node id='-318460' visible='true' lat='-34.16732041259' lon='150.70005870225'>
    <tag k='addr:housenumber' v='85' />
    <tag k='addr:street' v='Hawkey Road' />
  </node>
  <node id='-318462' visible='true' lat='-34.16996373005' lon='150.7034669867'>
    <tag k='addr:housenumber' v='81' />
    <tag k='addr:street' v='Hawkey Road' />
  </node>
  <node id='-318464' visible='true' lat='-34.16974717102' lon='150.70219751674'>
    <tag k='addr:housenumber' v='79' />
    <tag k='addr:street' v='Hawkey Road' />
  </node>
  <node id='-318466' visible='true' lat='-34.16795388904' lon='150.70320424024'>
    <tag k='addr:housenumber' v='77' />
    <tag k='addr:street' v='Hawkey Road' />
  </node>
  <node id='-318468' visible='true' lat='-34.16627810271' lon='150.70359387466'>
    <tag k='addr:housenumber' v='75' />
    <tag k='addr:street' v='Hawkey Road' />
  </node>
  <node id='-318470' visible='true' lat='-34.16450463919' lon='150.70282376931'>
    <tag k='addr:housenumber' v='83' />
    <tag k='addr:street' v='Hawkey Road' />
  </node>
  <node id='-318472' visible='true' lat='-34.16420070458' lon='150.69970794571'>
    <tag k='addr:housenumber' v='95' />
    <tag k='addr:street' v='Hawkey Road' />
  </node>
  <node id='-318474' visible='true' lat='-34.16654795007' lon='150.70640337006'>
    <tag k='addr:housenumber' v='284' />
    <tag k='addr:street' v='Carrolls Road' />
  </node>
  <node id='-318476' visible='true' lat='-34.1659477482' lon='150.70574093469'>
    <tag k='addr:housenumber' v='276' />
    <tag k='addr:street' v='Carrolls Road' />
  </node>
  <node id='6239376296' action='modify' timestamp='2019-01-27T10:53:09Z' uid='7143155' user='4linta' visible='true' version='1' changeset='66673810' lat='-34.1278619' lon='150.7386094' />
  <node id='6239376297' action='modify' timestamp='2019-01-27T10:53:09Z' uid='7143155' user='4linta' visible='true' version='1' changeset='66673810' lat='-34.1278851' lon='150.738824' />
  <node id='6239376298' action='modify' timestamp='2019-01-27T10:53:09Z' uid='7143155' user='4linta' visible='true' version='1' changeset='66673810' lat='-34.1279627' lon='150.7388118' />
  <node id='6239376299' action='modify' timestamp='2019-01-27T10:53:09Z' uid='7143155' user='4linta' visible='true' version='1' changeset='66673810' lat='-34.1279395' lon='150.7385972' />
  <way id='666426586' action='modify' timestamp='2019-01-27T10:53:09Z' uid='7143155' user='4linta' visible='true' version='1' changeset='66673810'>
    <nd ref='6239376296' />
    <nd ref='6239376297' />
    <nd ref='6239376298' />
    <nd ref='6239376299' />
    <nd ref='6239376296' />
    <tag k='addr:housenumber' v='119' />
    <tag k='addr:street' v='Menangle Road' />
    <tag k='amenity' v='place_of_worship' />
    <tag k='building' v='yes' />
    <tag k='religion' v='christian' />
  </way>
</osm>
