<?xml version='1.0' encoding='UTF-8'?>
<osm version='0.6' generator='JOSM'>
  <node id='-613244' lat='-33.86616311036' lon='151.05963727467'>
    <tag k='addr:housenumber' v='160' />
    <tag k='addr:street' v='Arthur Street' />
  </node>
  <node id='-613246' lat='-33.86566307375' lon='151.05831049005'>
    <tag k='addr:housenumber' v='177' />
    <tag k='addr:street' v='Arthur Street' />
  </node>
  <node id='-613248' lat='-33.87788543828' lon='151.05780700529'>
    <tag k='addr:housenumber' v='2' />
    <tag k='addr:street' v='East Street' />
  </node>
</osm>
