<?xml version='1.0' encoding='UTF-8'?>
<osm version='0.6' generator='JOSM'>
  <node id='-1336075' visible='true' lat='-33.846831' lon='151.074454'>
    <tag k='addr:housenumber' v='102' />
    <tag k='addr:street' v='Bennelong Parkway' />
  </node>
  <node id='-1336077' action='modify' visible='true' lat='-33.84780714795' lon='151.07454887599'>
    <tag k='addr:housenumber' v='100' />
    <tag k='addr:street' v='Bennelong Parkway' />
  </node>
  <node id='-1336081' visible='true' lat='-33.845861' lon='151.069674'>
    <tag k='addr:housenumber' v='11' />
    <tag k='addr:street' v='Murray Rose Avenue' />
  </node>
  <node id='-1336083' visible='true' lat='-33.845898' lon='151.069768'>
    <tag k='addr:housenumber' v='9' />
    <tag k='addr:street' v='Murray Rose Avenue' />
  </node>
  <node id='-1336085' visible='true' lat='-33.836777' lon='151.082894'>
    <tag k='addr:housenumber' v='3' />
    <tag k='addr:street' v='Oulton Avenue' />
  </node>
  <node id='-1336087' visible='true' lat='-33.849552' lon='151.069219'>
    <tag k='addr:housenumber' v='7' />
    <tag k='addr:street' v='Figtree Drive' />
  </node>
  <node id='-1336091' visible='true' lat='-33.849013' lon='151.074794'>
    <tag k='addr:housenumber' v='98' />
    <tag k='addr:street' v='Bennelong Parkway' />
  </node>
  <node id='-1336095' visible='true' lat='-33.848509' lon='151.074792'>
    <tag k='addr:housenumber' v='3' />
    <tag k='addr:street' v='Brushbox Street' />
  </node>
  <node id='-1336097' visible='true' lat='-33.851619' lon='151.062914'>
    <tag k='addr:housenumber' v='2A-4' />
    <tag k='addr:street' v='Edwin Flack Avenue' />
  </node>
  <node id='-1336099' visible='true' lat='-33.854849' lon='151.072362'>
    <tag k='addr:housenumber' v='2' />
    <tag k='addr:street' v='Rod Laver Drive' />
  </node>
  <node id='-1336101' visible='true' lat='-33.84863' lon='151.07118'>
    <tag k='addr:housenumber' v='3' />
    <tag k='addr:street' v='Figtree Drive' />
  </node>
  <node id='-1336103' visible='true' lat='-33.850402' lon='151.070751'>
    <tag k='addr:housenumber' v='6' />
    <tag k='addr:street' v='Figtree Drive' />
  </node>
  <node id='-1336105' visible='true' lat='-33.846085' lon='151.074473'>
    <tag k='addr:housenumber' v='8' />
    <tag k='addr:street' v='Parkview Drive' />
  </node>
  <node id='-1336107' visible='true' lat='-33.848129' lon='151.070061'>
    <tag k='addr:housenumber' v='6' />
    <tag k='addr:street' v='Herb Elliott Avenue' />
  </node>
  <node id='-1336109' visible='true' lat='-33.84666' lon='151.073564'>
    <tag k='addr:housenumber' v='6' />
    <tag k='addr:street' v='Parkview Drive' />
  </node>
  <node id='-1336111' visible='true' lat='-33.845536' lon='151.073034'>
    <tag k='addr:housenumber' v='3' />
    <tag k='addr:street' v='Parkview Drive' />
  </node>
  <node id='-1336113' visible='true' lat='-33.847726' lon='151.070745'>
    <tag k='addr:housenumber' v='4' />
    <tag k='addr:street' v='Herb Elliott Avenue' />
  </node>
  <node id='-1336115' visible='true' lat='-33.845222' lon='151.073792'>
    <tag k='addr:housenumber' v='5' />
    <tag k='addr:street' v='Parkview Drive' />
  </node>
  <node id='-1336117' visible='true' lat='-33.849284' lon='151.070256'>
    <tag k='addr:housenumber' v='5' />
    <tag k='addr:street' v='Figtree Drive' />
  </node>
  <node id='-1336119' visible='true' lat='-33.843593' lon='151.059366'>
    <tag k='addr:housenumber' v='7' />
    <tag k='addr:street' v='Hill Road' />
  </node>
  <node id='-1336121' visible='true' lat='-33.838425' lon='151.062509'>
    <tag k='addr:housenumber' v='9' />
    <tag k='addr:street' v='Hill Road' />
  </node>
  <node id='-1336123' action='modify' visible='true' lat='-33.822398' lon='151.07588762617'>
    <tag k='addr:housenumber' v='14B' />
    <tag k='addr:street' v='Hill Road' />
  </node>
  <node id='-1336125' action='modify' visible='true' lat='-33.82238003369' lon='151.075866'>
    <tag k='addr:housenumber' v='14A' />
    <tag k='addr:street' v='Hill Road' />
  </node>
  <node id='-1336127' visible='true' lat='-33.847115' lon='151.063391'>
    <tag k='addr:housenumber' v='15' />
    <tag k='addr:street' v='Edwin Flack Avenue' />
  </node>
  <node id='-1336129' visible='true' lat='-33.847403' lon='151.071532'>
    <tag k='addr:housenumber' v='2' />
    <tag k='addr:street' v='Australia Avenue' />
  </node>
  <node id='-1336131' visible='true' lat='-33.847704' lon='151.068681'>
    <tag k='addr:housenumber' v='1' />
    <tag k='addr:street' v='Herb Elliott Avenue' />
  </node>
  <node id='-1336133' visible='true' lat='-33.847284' lon='151.069556'>
    <tag k='addr:housenumber' v='10' />
    <tag k='addr:street' v='Dawn Fraser Avenue' />
  </node>
  <node id='-1336135' visible='true' lat='-33.843236' lon='151.067391'>
    <tag k='addr:housenumber' v='1' />
    <tag k='addr:street' v='Showground Road' />
  </node>
  <node id='-1336137' visible='true' lat='-33.850026' lon='151.062154'>
    <tag k='addr:housenumber' v='8' />
    <tag k='addr:street' v='Edwin Flack Avenue' />
  </node>
  <node id='-1336139' visible='true' lat='-33.848854' lon='151.068064'>
    <tag k='addr:housenumber' v='9' />
    <tag k='addr:street' v='Olympic Boulevard' />
  </node>
  <node id='-1336141' visible='true' lat='-33.84545' lon='151.070981'>
    <tag k='addr:housenumber' v='8' />
    <tag k='addr:street' v='Australia Avenue' />
  </node>
  <node id='-1336143' visible='true' lat='-33.846782' lon='151.072609'>
    <tag k='addr:housenumber' v='4/11' />
    <tag k='addr:street' v='Australia Avenue' />
  </node>
  <node id='-1336145' visible='true' lat='-33.848094' lon='151.067623'>
    <tag k='addr:housenumber' v='11' />
    <tag k='addr:street' v='Olympic Boulevard' />
  </node>
  <node id='-1336147' visible='true' lat='-33.846576' lon='151.07281'>
    <tag k='addr:housenumber' v='5/11' />
    <tag k='addr:street' v='Australia Avenue' />
  </node>
  <node id='-1336149' visible='true' lat='-33.845684' lon='151.070347'>
    <tag k='addr:housenumber' v='7' />
    <tag k='addr:street' v='Murray Rose Avenue' />
  </node>
  <node id='-1336151' visible='true' lat='-33.848599' lon='151.069302'>
    <tag k='addr:housenumber' v='8' />
    <tag k='addr:street' v='Herb Elliott Avenue' />
  </node>
  <node id='-1336153' action='modify' visible='true' lat='-33.845147' lon='151.07499236808'>
    <tag k='addr:housenumber' v='9' />
    <tag k='addr:street' v='Parkview Drive' />
  </node>
  <node id='-1336155' action='modify' visible='true' lat='-33.845147' lon='151.07503563192'>
    <tag k='addr:housenumber' v='10' />
    <tag k='addr:street' v='Parkview Drive' />
  </node>
  <node id='-1336157' visible='true' lat='-33.842723' lon='151.07586'>
    <tag k='addr:housenumber' v='8' />
    <tag k='addr:street' v='Bennelong Parkway' />
  </node>
  <node id='-1336159' visible='true' lat='-33.84421' lon='151.07479'>
    <tag k='addr:housenumber' v='6' />
    <tag k='addr:street' v='Murray Rose Avenue' />
  </node>
  <node id='-1336161' visible='true' lat='-33.844591' lon='151.074635'>
    <tag k='addr:housenumber' v='4' />
    <tag k='addr:street' v='Murray Rose Avenue' />
  </node>
  <node id='-1336163' visible='true' lat='-33.844269' lon='151.075412'>
    <tag k='addr:housenumber' v='2' />
    <tag k='addr:street' v='Murray Rose Avenue' />
  </node>
  <node id='-1336165' visible='true' lat='-33.843846' lon='151.074788'>
    <tag k='addr:housenumber' v='3' />
    <tag k='addr:street' v='Murray Rose Avenue' />
  </node>
  <node id='-1336167' visible='true' lat='-33.843539' lon='151.075529'>
    <tag k='addr:housenumber' v='1' />
    <tag k='addr:street' v='Murray Rose Avenue' />
  </node>
  <node id='-1336169' visible='true' lat='-33.844119' lon='151.074086'>
    <tag k='addr:housenumber' v='5' />
    <tag k='addr:street' v='Murray Rose Avenue' />
  </node>
  <node id='-1336171' action='modify' visible='true' lat='-33.822398' lon='151.07584437383'>
    <tag k='addr:housenumber' v='16' />
    <tag k='addr:street' v='Hill Road' />
  </node>
  <node id='-1336173' action='modify' visible='true' lat='-33.82241596631' lon='151.075866'>
    <tag k='addr:housenumber' v='14' />
    <tag k='addr:street' v='Hill Road' />
  </node>
  <node id='-1336175' visible='true' lat='-33.848756' lon='151.068547'>
    <tag k='addr:housenumber' v='10' />
    <tag k='addr:street' v='Herb Elliott Avenue' />
  </node>
  <node id='-1336177' visible='true' lat='-33.849172' lon='151.068564'>
    <tag k='addr:housenumber' v='7' />
    <tag k='addr:street' v='Olympic Boulevard' />
  </node>
  <node id='-1336179' visible='true' lat='-33.850624' lon='151.06249'>
    <tag k='addr:housenumber' v='6' />
    <tag k='addr:street' v='Edwin Flack Avenue' />
  </node>
  <node id='-1336181' visible='true' lat='-33.854681' lon='151.064652'>
    <tag k='addr:housenumber' v='2' />
    <tag k='addr:street' v='Edwin Flack Avenue' />
  </node>
  <node id='-1336183' visible='true' lat='-33.853581' lon='151.06884'>
    <tag k='addr:housenumber' v='4' />
    <tag k='addr:street' v='Olympic Boulevard' />
  </node>
  <node id='-1336185' visible='true' lat='-33.846637' lon='151.056726'>
    <tag k='addr:housenumber' v='1-5' />
    <tag k='addr:street' v='Hill Road' />
  </node>
  <node id='-1336187' visible='true' lat='-33.852609' lon='151.072562'>
    <tag k='addr:housenumber' v='1' />
    <tag k='addr:street' v='Olympic Boulevard' />
  </node>
</osm>
