<?xml version='1.0' encoding='UTF-8'?>
<osm version='0.6' generator='JOSM'>
  <node id='-173611' action='modify' visible='true' lat='-33.74481593762' lon='151.25097833566'>
    <tag k='addr:housenumber' v='1091' />
    <tag k='addr:street' v='Oxford Falls Road' />
    <tag k='fixme' v='No house visible' />
  </node>
  <node id='-173613' action='modify' visible='true' lat='-33.74385486416' lon='151.25299767375'>
    <tag k='addr:housenumber' v='1090' />
    <tag k='addr:street' v='Brooker Avenue' />
    <tag k='fixme' v='No house visible' />
  </node>
  <node id='-173615' action='modify' visible='true' lat='-33.74615339993' lon='151.25215813807'>
    <tag k='addr:housenumber' v='1093' />
    <tag k='addr:street' v='Oxford Falls Road' />
    <tag k='fixme' v='No house visible' />
  </node>
  <node id='-173617' action='modify' visible='true' lat='-33.74515043275' lon='151.25295265524'>
    <tag k='addr:housenumber' v='1092' />
    <tag k='addr:street' v='Brooker Avenue' />
    <tag k='fixme' v='No house visible' />
  </node>
  <node id='-173619' action='modify' visible='true' lat='-33.7397647355' lon='151.25022575063'>
    <tag k='addr:housenumber' v='2627' />
    <tag k='addr:street' v='Brooker Avenue' />
    <tag k='fixme' v='No house visible' />
  </node>
  <node id='-173621' action='modify' visible='true' lat='-33.72794776177' lon='151.2343474501'>
    <tag k='addr:housenumber' v='199' />
    <tag k='addr:street' v='Morgan Road' />
    <tag k='fixme' v='No house visible' />
  </node>
  <node id='-173623' action='modify' visible='true' lat='-33.73355820937' lon='151.22968264917'>
    <tag k='addr:housenumber' v='988' />
    <tag k='addr:street' v='Perentie Road' />
    <tag k='fixme' v='No house visible' />
  </node>
  <node id='-173625' action='modify' visible='true' lat='-33.73805415787' lon='151.26380796846'>
    <tag k='addr:housenumber' v='820' />
    <tag k='addr:street' v='Maybrook Avenue' />
    <tag k='fixme' v='No house visible' />
  </node>
  <node id='-173627' action='modify' visible='true' lat='-33.74256597694' lon='151.26495143713'>
    <tag k='addr:housenumber' v='78' />
    <tag k='addr:street' v='Willandra Road' />
    <tag k='fixme' v='No house visible' />
  </node>
  <node id='-173629' action='modify' visible='true' lat='-33.73237965629' lon='151.25394414308'>
    <tag k='addr:housenumber' v='7' />
    <tag k='addr:street' v='Oxford Falls Road' />
    <tag k='fixme' v='No house visible' />
  </node>
  <node id='-173631' action='modify' visible='true' lat='-33.74345365022' lon='151.26125823076'>
    <tag k='addr:housenumber' v='70A' />
    <tag k='addr:street' v='Willandra Road' />
    <tag k='fixme' v='No house visible' />
  </node>
  <node id='-173633' action='modify' visible='true' lat='-33.73903713572' lon='151.25037255693'>
    <tag k='addr:housenumber' v='1084' />
    <tag k='addr:street' v='Brooker Avenue' />
    <tag k='fixme' v='No house visible' />
  </node>
  <node id='-173635' action='modify' visible='true' lat='-33.74280802824' lon='151.25649484463'>
    <tag k='addr:housenumber' v='6' />
    <tag k='addr:street' v='Dreadnought Road' />
    <tag k='fixme' v='No house visible' />
  </node>
  <node id='-173637' action='modify' visible='true' lat='-33.72891885174' lon='151.24101413919'>
    <tag k='addr:housenumber' v='1014' />
    <tag k='addr:street' v='Oxford Falls Road' />
    <tag k='fixme' v='No house visible' />
  </node>
  <node id='-173639' action='modify' visible='true' lat='-33.74161954213' lon='151.25507836099'>
    <tag k='addr:housenumber' v='7' />
    <tag k='addr:street' v='Dreadnought Road' />
    <tag k='fixme' v='No house visible' />
  </node>
  <node id='-173641' action='modify' visible='true' lat='-33.73832994384' lon='151.26594852437'>
    <tag k='addr:housenumber' v='43-45' />
    <tag k='addr:street' v='Little Willandra Road' />
    <tag k='fixme' v='No house visible' />
  </node>
  <node id='-173643' action='modify' visible='true' lat='-33.74035320084' lon='151.25619180754'>
    <tag k='addr:housenumber' v='L7034' />
    <tag k='addr:street' v='Willandra Road' />
    <tag k='fixme' v='No house visible' />
  </node>
  <node id='-173645' action='modify' visible='true' lat='-33.72797039167' lon='151.23373735566'>
    <tag k='addr:housenumber' v='3' />
    <tag k='addr:street' v='Oxford Falls Road' />
    <tag k='fixme' v='No house visible' />
  </node>
  <node id='-173647' action='modify' visible='true' lat='-33.7279428139' lon='151.23270499927'>
    <tag k='addr:housenumber' v='2' />
    <tag k='addr:street' v='Oxford Falls Road' />
    <tag k='fixme' v='No house visible' />
  </node>
  <node id='-173649' action='modify' visible='true' lat='-33.74553868275' lon='151.26331871635'>
    <tag k='addr:housenumber' v='72' />
    <tag k='addr:street' v='Willandra Road' />
    <tag k='fixme' v='No house visible' />
  </node>
  <node id='-173651' action='modify' visible='true' lat='-33.74434112552' lon='151.26392519181'>
    <tag k='addr:housenumber' v='74' />
    <tag k='addr:street' v='Willandra Road' />
    <tag k='fixme' v='No house visible' />
  </node>
  <node id='-173653' action='modify' visible='true' lat='-33.73212049278' lon='151.23423964894'>
    <tag k='addr:housenumber' v='1001' />
    <tag k='addr:street' v='Oxford Falls Road' />
    <tag k='fixme' v='No house visible' />
  </node>
  <node id='-173655' action='modify' visible='true' lat='-33.73552324824' lon='151.24940390647'>
    <tag k='addr:housenumber' v='1054-1055' />
    <tag k='addr:street' v='Meatworks Avenue' />
    <tag k='fixme' v='No house visible' />
  </node>
  <node id='-173657' action='modify' visible='true' lat='-33.74205907476' lon='151.25176088283'>
    <tag k='addr:housenumber' v='1088-1089' />
    <tag k='addr:street' v='Brooker Avenue' />
    <tag k='fixme' v='No house visible' />
  </node>
  <node id='-173659' action='modify' visible='true' lat='-33.73568949068' lon='151.24792303158'>
    <tag k='addr:housenumber' v='2510' />
    <tag k='addr:street' v='Oxford Falls Road' />
    <tag k='fixme' v='No house visible' />
  </node>
  <node id='-173661' action='modify' visible='true' lat='-33.74344450114' lon='151.26454264404'>
    <tag k='addr:housenumber' v='76' />
    <tag k='addr:street' v='Willandra Road' />
    <tag k='fixme' v='No house visible' />
  </node>
  <node id='-173844' action='modify' visible='true' lat='-33.74052568897' lon='151.26625024093'>
    <tag k='addr:housenumber' v='27/51' />
    <tag k='addr:postcode' v='2100' />
    <tag k='addr:state' v='NSW' />
    <tag k='addr:street' v='Little Willandra Road' />
    <tag k='addr:suburb' v='Oxford Falls' />
  </node>
  <node id='-173845' action='modify' visible='true' lat='-33.74053097733' lon='151.26625671121'>
    <tag k='addr:housenumber' v='39/51' />
    <tag k='addr:postcode' v='2100' />
    <tag k='addr:state' v='NSW' />
    <tag k='addr:street' v='Little Willandra Road' />
    <tag k='addr:suburb' v='Oxford Falls' />
  </node>
  <node id='-173846' action='modify' visible='true' lat='-33.74045317577' lon='151.26625024093'>
    <tag k='addr:housenumber' v='1/51' />
    <tag k='addr:postcode' v='2100' />
    <tag k='addr:state' v='NSW' />
    <tag k='addr:street' v='Little Willandra Road' />
    <tag k='addr:suburb' v='Oxford Falls' />
  </node>
  <node id='-173847' action='modify' visible='true' lat='-33.74054119363' lon='151.2663206354'>
    <tag k='addr:housenumber' v='21/51' />
    <tag k='addr:postcode' v='2100' />
    <tag k='addr:state' v='NSW' />
    <tag k='addr:street' v='Little Willandra Road' />
    <tag k='addr:suburb' v='Oxford Falls' />
  </node>
  <node id='-173848' action='modify' visible='true' lat='-33.74048943237' lon='151.26636520628'>
    <tag k='addr:housenumber' v='34/51' />
    <tag k='addr:postcode' v='2100' />
    <tag k='addr:state' v='NSW' />
    <tag k='addr:street' v='Little Willandra Road' />
    <tag k='addr:suburb' v='Oxford Falls' />
  </node>
  <node id='-173849' action='modify' visible='true' lat='-33.7404405882' lon='151.26632900214'>
    <tag k='addr:housenumber' v='16/51' />
    <tag k='addr:postcode' v='2100' />
    <tag k='addr:state' v='NSW' />
    <tag k='addr:street' v='Little Willandra Road' />
    <tag k='addr:suburb' v='Oxford Falls' />
  </node>
  <node id='-173850' action='modify' visible='true' lat='-33.7405439044' lon='151.26629378813'>
    <tag k='addr:housenumber' v='9/51' />
    <tag k='addr:postcode' v='2100' />
    <tag k='addr:state' v='NSW' />
    <tag k='addr:street' v='Little Willandra Road' />
    <tag k='addr:suburb' v='Oxford Falls' />
  </node>
  <node id='-173851' action='modify' visible='true' lat='-33.74043657934' lon='151.26631629052'>
    <tag k='addr:housenumber' v='12/51' />
    <tag k='addr:postcode' v='2100' />
    <tag k='addr:state' v='NSW' />
    <tag k='addr:street' v='Little Willandra Road' />
    <tag k='addr:suburb' v='Oxford Falls' />
  </node>
  <node id='-173852' action='modify' visible='true' lat='-33.74054370927' lon='151.26630738118'>
    <tag k='addr:housenumber' v='11/51' />
    <tag k='addr:postcode' v='2100' />
    <tag k='addr:state' v='NSW' />
    <tag k='addr:street' v='Little Willandra Road' />
    <tag k='addr:suburb' v='Oxford Falls' />
  </node>
  <node id='-173853' action='modify' visible='true' lat='-33.74050067694' lon='151.26636380077'>
    <tag k='addr:housenumber' v='17/51' />
    <tag k='addr:postcode' v='2100' />
    <tag k='addr:state' v='NSW' />
    <tag k='addr:street' v='Little Willandra Road' />
    <tag k='addr:suburb' v='Oxford Falls' />
  </node>
  <node id='-173854' action='modify' visible='true' lat='-33.74045608564' lon='151.26624735014'>
    <tag k='addr:housenumber' v='52/51' />
    <tag k='addr:postcode' v='2100' />
    <tag k='addr:state' v='NSW' />
    <tag k='addr:street' v='Little Willandra Road' />
    <tag k='addr:suburb' v='Oxford Falls' />
  </node>
  <node id='-173855' action='modify' visible='true' lat='-33.7405227791' lon='151.26624735014'>
    <tag k='addr:housenumber' v='61/51' />
    <tag k='addr:postcode' v='2100' />
    <tag k='addr:state' v='NSW' />
    <tag k='addr:street' v='Little Willandra Road' />
    <tag k='addr:suburb' v='Oxford Falls' />
  </node>
  <node id='-173856' action='modify' visible='true' lat='-33.74044668529' lon='151.26634045057'>
    <tag k='addr:housenumber' v='8/51' />
    <tag k='addr:postcode' v='2100' />
    <tag k='addr:state' v='NSW' />
    <tag k='addr:street' v='Little Willandra Road' />
    <tag k='addr:suburb' v='Oxford Falls' />
  </node>
  <node id='-173857' action='modify' visible='true' lat='-33.74043976926' lon='151.26627195455'>
    <tag k='addr:housenumber' v='44/51' />
    <tag k='addr:postcode' v='2100' />
    <tag k='addr:state' v='NSW' />
    <tag k='addr:street' v='Little Willandra Road' />
    <tag k='addr:suburb' v='Oxford Falls' />
  </node>
  <node id='-173858' action='modify' visible='true' lat='-33.74054409977' lon='151.26629832095'>
    <tag k='addr:housenumber' v='83/51' />
    <tag k='addr:postcode' v='2100' />
    <tag k='addr:state' v='NSW' />
    <tag k='addr:street' v='Little Willandra Road' />
    <tag k='addr:suburb' v='Oxford Falls' />
  </node>
  <node id='-173859' action='modify' visible='true' lat='-33.74054312526' lon='151.26631186542'>
    <tag k='addr:housenumber' v='3/51' />
    <tag k='addr:postcode' v='2100' />
    <tag k='addr:state' v='NSW' />
    <tag k='addr:street' v='Little Willandra Road' />
    <tag k='addr:suburb' v='Oxford Falls' />
  </node>
  <node id='-173860' action='modify' visible='true' lat='-33.74044553412' lon='151.26626025987'>
    <tag k='addr:housenumber' v='14/51' />
    <tag k='addr:postcode' v='2100' />
    <tag k='addr:state' v='NSW' />
    <tag k='addr:street' v='Little Willandra Road' />
    <tag k='addr:suburb' v='Oxford Falls' />
  </node>
  <node id='-173861' action='modify' visible='true' lat='-33.74049695866' lon='151.26636458037'>
    <tag k='addr:housenumber' v='67/51' />
    <tag k='addr:postcode' v='2100' />
    <tag k='addr:state' v='NSW' />
    <tag k='addr:street' v='Little Willandra Road' />
    <tag k='addr:suburb' v='Oxford Falls' />
  </node>
  <node id='-173862' action='modify' visible='true' lat='-33.74050970011' lon='151.26623838971'>
    <tag k='addr:housenumber' v='41/51' />
    <tag k='addr:postcode' v='2100' />
    <tag k='addr:state' v='NSW' />
    <tag k='addr:street' v='Little Willandra Road' />
    <tag k='addr:suburb' v='Oxford Falls' />
  </node>
  <node id='-173863' action='modify' visible='true' lat='-33.74044443526' lon='151.26633680635'>
    <tag k='addr:housenumber' v='4/51' />
    <tag k='addr:postcode' v='2100' />
    <tag k='addr:state' v='NSW' />
    <tag k='addr:street' v='Little Willandra Road' />
    <tag k='addr:suburb' v='Oxford Falls' />
  </node>
  <node id='-173864' action='modify' visible='true' lat='-33.74054177069' lon='151.26628043739'>
    <tag k='addr:housenumber' v='42/51' />
    <tag k='addr:postcode' v='2100' />
    <tag k='addr:state' v='NSW' />
    <tag k='addr:street' v='Little Willandra Road' />
    <tag k='addr:suburb' v='Oxford Falls' />
  </node>
  <node id='-173865' action='modify' visible='true' lat='-33.74052425479' lon='151.26635014635'>
    <tag k='addr:housenumber' v='31/51' />
    <tag k='addr:postcode' v='2100' />
    <tag k='addr:state' v='NSW' />
    <tag k='addr:street' v='Little Willandra Road' />
    <tag k='addr:suburb' v='Oxford Falls' />
  </node>
  <node id='-173866' action='modify' visible='true' lat='-33.74044146535' lon='151.26626789974'>
    <tag k='addr:housenumber' v='40/51' />
    <tag k='addr:postcode' v='2100' />
    <tag k='addr:state' v='NSW' />
    <tag k='addr:street' v='Little Willandra Road' />
    <tag k='addr:suburb' v='Oxford Falls' />
  </node>
  <node id='-173867' action='modify' visible='true' lat='-33.74051144077' lon='151.26635964432'>
    <tag k='addr:housenumber' v='33/51' />
    <tag k='addr:postcode' v='2100' />
    <tag k='addr:state' v='NSW' />
    <tag k='addr:street' v='Little Willandra Road' />
    <tag k='addr:suburb' v='Oxford Falls' />
  </node>
  <node id='-173868' action='modify' visible='true' lat='-33.74045043868' lon='151.26625336625'>
    <tag k='addr:housenumber' v='13/51' />
    <tag k='addr:postcode' v='2100' />
    <tag k='addr:state' v='NSW' />
    <tag k='addr:street' v='Little Willandra Road' />
    <tag k='addr:suburb' v='Oxford Falls' />
  </node>
  <node id='-173869' action='modify' visible='true' lat='-33.74051315521' lon='151.26624021674'>
    <tag k='addr:housenumber' v='37/51' />
    <tag k='addr:postcode' v='2100' />
    <tag k='addr:state' v='NSW' />
    <tag k='addr:street' v='Little Willandra Road' />
    <tag k='addr:suburb' v='Oxford Falls' />
  </node>
  <node id='-173870' action='modify' visible='true' lat='-33.74045460995' lon='151.26635014635'>
    <tag k='addr:housenumber' v='26/51' />
    <tag k='addr:postcode' v='2100' />
    <tag k='addr:state' v='NSW' />
    <tag k='addr:street' v='Little Willandra Road' />
    <tag k='addr:suburb' v='Oxford Falls' />
  </node>
  <node id='-173871' action='modify' visible='true' lat='-33.74054344945' lon='151.26628928232'>
    <tag k='addr:housenumber' v='19/51' />
    <tag k='addr:postcode' v='2100' />
    <tag k='addr:state' v='NSW' />
    <tag k='addr:street' v='Little Willandra Road' />
    <tag k='addr:suburb' v='Oxford Falls' />
  </node>
  <node id='-173872' action='modify' visible='true' lat='-33.74043541527' lon='151.26628928232'>
    <tag k='addr:housenumber' v='30/51' />
    <tag k='addr:postcode' v='2100' />
    <tag k='addr:state' v='NSW' />
    <tag k='addr:street' v='Little Willandra Road' />
    <tag k='addr:suburb' v='Oxford Falls' />
  </node>
  <node id='-173873' action='modify' visible='true' lat='-33.74051812088' lon='151.26635542817'>
    <tag k='addr:housenumber' v='6/51' />
    <tag k='addr:postcode' v='2100' />
    <tag k='addr:state' v='NSW' />
    <tag k='addr:street' v='Little Willandra Road' />
    <tag k='addr:suburb' v='Oxford Falls' />
  </node>
  <node id='-173874' action='modify' visible='true' lat='-33.74048004135' lon='151.26623468252'>
    <tag k='addr:housenumber' v='18/51' />
    <tag k='addr:postcode' v='2100' />
    <tag k='addr:state' v='NSW' />
    <tag k='addr:street' v='Little Willandra Road' />
    <tag k='addr:suburb' v='Oxford Falls' />
  </node>
  <node id='-173875' action='modify' visible='true' lat='-33.7405079353' lon='151.26636132685'>
    <tag k='addr:housenumber' v='35/51' />
    <tag k='addr:postcode' v='2100' />
    <tag k='addr:state' v='NSW' />
    <tag k='addr:street' v='Little Willandra Road' />
    <tag k='addr:suburb' v='Oxford Falls' />
  </node>
  <node id='-173876' action='modify' visible='true' lat='-33.74049508495' lon='151.26623405772'>
    <tag k='addr:housenumber' v='23/51' />
    <tag k='addr:postcode' v='2100' />
    <tag k='addr:state' v='NSW' />
    <tag k='addr:street' v='Little Willandra Road' />
    <tag k='addr:suburb' v='Oxford Falls' />
  </node>
  <node id='-173877' action='modify' visible='true' lat='-33.74045178479' lon='151.2663471365'>
    <tag k='addr:housenumber' v='51/51' />
    <tag k='addr:postcode' v='2100' />
    <tag k='addr:state' v='NSW' />
    <tag k='addr:street' v='Little Willandra Road' />
    <tag k='addr:suburb' v='Oxford Falls' />
  </node>
  <node id='-173878' action='modify' visible='true' lat='-33.74053739938' lon='151.26626789974'>
    <tag k='addr:housenumber' v='10/51' />
    <tag k='addr:postcode' v='2100' />
    <tag k='addr:state' v='NSW' />
    <tag k='addr:street' v='Little Willandra Road' />
    <tag k='addr:suburb' v='Oxford Falls' />
  </node>
  <node id='-173879' action='modify' visible='true' lat='-33.74053442947' lon='151.26633680635'>
    <tag k='addr:housenumber' v='38/51' />
    <tag k='addr:postcode' v='2100' />
    <tag k='addr:state' v='NSW' />
    <tag k='addr:street' v='Little Willandra Road' />
    <tag k='addr:suburb' v='Oxford Falls' />
  </node>
  <node id='-173880' action='modify' visible='true' lat='-33.74043709402' lon='151.26628043739'>
    <tag k='addr:housenumber' v='43/51' />
    <tag k='addr:postcode' v='2100' />
    <tag k='addr:state' v='NSW' />
    <tag k='addr:street' v='Little Willandra Road' />
    <tag k='addr:suburb' v='Oxford Falls' />
  </node>
  <node id='-173881' action='modify' visible='true' lat='-33.74053646507' lon='151.26633298413'>
    <tag k='addr:housenumber' v='36/51' />
    <tag k='addr:postcode' v='2100' />
    <tag k='addr:state' v='NSW' />
    <tag k='addr:street' v='Little Willandra Road' />
    <tag k='addr:suburb' v='Oxford Falls' />
  </node>
  <node id='-173882' action='modify' visible='true' lat='-33.74043612763' lon='151.26628482499'>
    <tag k='addr:housenumber' v='90/51' />
    <tag k='addr:postcode' v='2100' />
    <tag k='addr:state' v='NSW' />
    <tag k='addr:street' v='Little Willandra Road' />
    <tag k='addr:suburb' v='Oxford Falls' />
  </node>
  <node id='-173883' action='modify' visible='true' lat='-33.74050251709' lon='151.26623561599'>
    <tag k='addr:housenumber' v='24/51' />
    <tag k='addr:postcode' v='2100' />
    <tag k='addr:state' v='NSW' />
    <tag k='addr:street' v='Little Willandra Road' />
    <tag k='addr:suburb' v='Oxford Falls' />
  </node>
  <node id='-173884' action='modify' visible='true' lat='-33.74046742397' lon='151.26635964432'>
    <tag k='addr:housenumber' v='82/51' />
    <tag k='addr:postcode' v='2100' />
    <tag k='addr:state' v='NSW' />
    <tag k='addr:street' v='Little Willandra Road' />
    <tag k='addr:suburb' v='Oxford Falls' />
  </node>
  <node id='-173885' action='modify' visible='true' lat='-33.7404988234' lon='151.26623468252'>
    <tag k='addr:housenumber' v='28/51' />
    <tag k='addr:postcode' v='2100' />
    <tag k='addr:state' v='NSW' />
    <tag k='addr:street' v='Little Willandra Road' />
    <tag k='addr:suburb' v='Oxford Falls' />
  </node>
  <node id='-173886' action='modify' visible='true' lat='-33.7404745231' lon='151.26636271454'>
    <tag k='addr:housenumber' v='50/51' />
    <tag k='addr:postcode' v='2100' />
    <tag k='addr:state' v='NSW' />
    <tag k='addr:street' v='Little Willandra Road' />
    <tag k='addr:suburb' v='Oxford Falls' />
  </node>
  <node id='-173887' action='modify' visible='true' lat='-33.74053909547' lon='151.26627195455'>
    <tag k='addr:housenumber' v='47/51' />
    <tag k='addr:postcode' v='2100' />
    <tag k='addr:state' v='NSW' />
    <tag k='addr:street' v='Little Willandra Road' />
    <tag k='addr:suburb' v='Oxford Falls' />
  </node>
  <node id='-173888' action='modify' visible='true' lat='-33.74043515545' lon='151.26630738118'>
    <tag k='addr:housenumber' v='73/51' />
    <tag k='addr:postcode' v='2100' />
    <tag k='addr:state' v='NSW' />
    <tag k='addr:street' v='Little Willandra Road' />
    <tag k='addr:suburb' v='Oxford Falls' />
  </node>
  <node id='-173889' action='modify' visible='true' lat='-33.74053217944' lon='151.26634045057'>
    <tag k='addr:housenumber' v='87/51' />
    <tag k='addr:postcode' v='2100' />
    <tag k='addr:state' v='NSW' />
    <tag k='addr:street' v='Little Willandra Road' />
    <tag k='addr:suburb' v='Oxford Falls' />
  </node>
  <node id='-173890' action='modify' visible='true' lat='-33.74046236749' lon='151.26624232608'>
    <tag k='addr:housenumber' v='22/51' />
    <tag k='addr:postcode' v='2100' />
    <tag k='addr:state' v='NSW' />
    <tag k='addr:street' v='Little Willandra Road' />
    <tag k='addr:suburb' v='Oxford Falls' />
  </node>
  <node id='-173891' action='modify' visible='true' lat='-33.74047634766' lon='151.26623561599'>
    <tag k='addr:housenumber' v='7/51' />
    <tag k='addr:postcode' v='2100' />
    <tag k='addr:state' v='NSW' />
    <tag k='addr:street' v='Little Willandra Road' />
    <tag k='addr:suburb' v='Oxford Falls' />
  </node>
  <node id='-173892' action='modify' visible='true' lat='-33.74052126368' lon='151.26635291464'>
    <tag k='addr:housenumber' v='15/51' />
    <tag k='addr:postcode' v='2100' />
    <tag k='addr:state' v='NSW' />
    <tag k='addr:street' v='Little Willandra Road' />
    <tag k='addr:suburb' v='Oxford Falls' />
  </node>
  <node id='-173893' action='modify' visible='true' lat='-33.74053333061' lon='151.26626025987'>
    <tag k='addr:housenumber' v='65/51' />
    <tag k='addr:postcode' v='2100' />
    <tag k='addr:state' v='NSW' />
    <tag k='addr:street' v='Little Willandra Road' />
    <tag k='addr:suburb' v='Oxford Falls' />
  </node>
  <node id='-173894' action='modify' visible='true' lat='-33.74046402337' lon='151.26635767497'>
    <tag k='addr:housenumber' v='56/51' />
    <tag k='addr:postcode' v='2100' />
    <tag k='addr:state' v='NSW' />
    <tag k='addr:street' v='Little Willandra Road' />
    <tag k='addr:suburb' v='Oxford Falls' />
  </node>
  <node id='-173895' action='modify' visible='true' lat='-33.7404348301' lon='151.26630285917'>
    <tag k='addr:housenumber' v='69/51' />
    <tag k='addr:postcode' v='2100' />
    <tag k='addr:state' v='NSW' />
    <tag k='addr:street' v='Little Willandra Road' />
    <tag k='addr:suburb' v='Oxford Falls' />
  </node>
  <node id='-173896' action='modify' visible='true' lat='-33.74053985523' lon='151.26632487935'>
    <tag k='addr:housenumber' v='49/51' />
    <tag k='addr:postcode' v='2100' />
    <tag k='addr:state' v='NSW' />
    <tag k='addr:street' v='Little Willandra Road' />
    <tag k='addr:suburb' v='Oxford Falls' />
  </node>
  <node id='-173897' action='modify' visible='true' lat='-33.74046916463' lon='151.26623838971'>
    <tag k='addr:housenumber' v='51' />
    <tag k='addr:postcode' v='2100' />
    <tag k='addr:state' v='NSW' />
    <tag k='addr:street' v='Little Willandra Road' />
    <tag k='addr:suburb' v='Oxford Falls' />
  </node>
  <node id='-173898' action='modify' visible='true' lat='-33.74048566024' lon='151.26636504962'>
    <tag k='addr:housenumber' v='32/51' />
    <tag k='addr:postcode' v='2100' />
    <tag k='addr:state' v='NSW' />
    <tag k='addr:street' v='Little Willandra Road' />
    <tag k='addr:suburb' v='Oxford Falls' />
  </node>
  <node id='-173899' action='modify' visible='true' lat='-33.7404837798' lon='151.26623405772'>
    <tag k='addr:housenumber' v='45/51' />
    <tag k='addr:postcode' v='2100' />
    <tag k='addr:state' v='NSW' />
    <tag k='addr:street' v='Little Willandra Road' />
    <tag k='addr:suburb' v='Oxford Falls' />
  </node>
  <node id='-173900' action='modify' visible='true' lat='-33.7404781878' lon='151.26636380077'>
    <tag k='addr:housenumber' v='74/51' />
    <tag k='addr:postcode' v='2100' />
    <tag k='addr:state' v='NSW' />
    <tag k='addr:street' v='Little Willandra Road' />
    <tag k='addr:suburb' v='Oxford Falls' />
  </node>
  <node id='-173901' action='modify' visible='true' lat='-33.74043767108' lon='151.2663206354'>
    <tag k='addr:housenumber' v='88/51' />
    <tag k='addr:postcode' v='2100' />
    <tag k='addr:state' v='NSW' />
    <tag k='addr:street' v='Little Willandra Road' />
    <tag k='addr:suburb' v='Oxford Falls' />
  </node>
  <node id='-173902' action='modify' visible='true' lat='-33.74045915442' lon='151.26624470766'>
    <tag k='addr:housenumber' v='89/51' />
    <tag k='addr:postcode' v='2100' />
    <tag k='addr:state' v='NSW' />
    <tag k='addr:street' v='Little Willandra Road' />
    <tag k='addr:suburb' v='Oxford Falls' />
  </node>
  <node id='-173903' action='modify' visible='true' lat='-33.74051971032' lon='151.26624470766'>
    <tag k='addr:housenumber' v='84/51' />
    <tag k='addr:postcode' v='2100' />
    <tag k='addr:state' v='NSW' />
    <tag k='addr:street' v='Little Willandra Road' />
    <tag k='addr:suburb' v='Oxford Falls' />
  </node>
  <node id='-173904' action='modify' visible='true' lat='-33.74052842606' lon='151.26625336625'>
    <tag k='addr:housenumber' v='86/51' />
    <tag k='addr:postcode' v='2100' />
    <tag k='addr:state' v='NSW' />
    <tag k='addr:street' v='Little Willandra Road' />
    <tag k='addr:suburb' v='Oxford Falls' />
  </node>
  <node id='-173905' action='modify' visible='true' lat='-33.74054228538' lon='151.26631629052'>
    <tag k='addr:housenumber' v='80/51' />
    <tag k='addr:postcode' v='2100' />
    <tag k='addr:state' v='NSW' />
    <tag k='addr:street' v='Little Willandra Road' />
    <tag k='addr:suburb' v='Oxford Falls' />
  </node>
  <node id='-173906' action='modify' visible='true' lat='-33.7404932045' lon='151.26636504962'>
    <tag k='addr:housenumber' v='81/51' />
    <tag k='addr:postcode' v='2100' />
    <tag k='addr:state' v='NSW' />
    <tag k='addr:street' v='Little Willandra Road' />
    <tag k='addr:suburb' v='Oxford Falls' />
  </node>
  <node id='-173907' action='modify' visible='true' lat='-33.74044239966' lon='151.26633298413'>
    <tag k='addr:housenumber' v='77/51' />
    <tag k='addr:postcode' v='2100' />
    <tag k='addr:state' v='NSW' />
    <tag k='addr:street' v='Little Willandra Road' />
    <tag k='addr:suburb' v='Oxford Falls' />
  </node>
  <node id='-173908' action='modify' visible='true' lat='-33.7404390095' lon='151.26632487935'>
    <tag k='addr:housenumber' v='79/51' />
    <tag k='addr:postcode' v='2100' />
    <tag k='addr:state' v='NSW' />
    <tag k='addr:street' v='Little Willandra Road' />
    <tag k='addr:suburb' v='Oxford Falls' />
  </node>
  <node id='-173909' action='modify' visible='true' lat='-33.74044788741' lon='151.26625671121'>
    <tag k='addr:housenumber' v='75/51' />
    <tag k='addr:postcode' v='2100' />
    <tag k='addr:state' v='NSW' />
    <tag k='addr:street' v='Little Willandra Road' />
    <tag k='addr:suburb' v='Oxford Falls' />
  </node>
  <node id='-173910' action='modify' visible='true' lat='-33.74051649725' lon='151.26624232608'>
    <tag k='addr:housenumber' v='76/51' />
    <tag k='addr:postcode' v='2100' />
    <tag k='addr:state' v='NSW' />
    <tag k='addr:street' v='Little Willandra Road' />
    <tag k='addr:suburb' v='Oxford Falls' />
  </node>
  <node id='-173911' action='modify' visible='true' lat='-33.74054273708' lon='151.26628482499'>
    <tag k='addr:housenumber' v='71/51' />
    <tag k='addr:postcode' v='2100' />
    <tag k='addr:state' v='NSW' />
    <tag k='addr:street' v='Little Willandra Road' />
    <tag k='addr:suburb' v='Oxford Falls' />
  </node>
  <node id='-173912' action='modify' visible='true' lat='-33.74054403462' lon='151.26630285917'>
    <tag k='addr:housenumber' v='72/51' />
    <tag k='addr:postcode' v='2100' />
    <tag k='addr:state' v='NSW' />
    <tag k='addr:street' v='Little Willandra Road' />
    <tag k='addr:suburb' v='Oxford Falls' />
  </node>
  <node id='-173913' action='modify' visible='true' lat='-33.74050434165' lon='151.26636271454'>
    <tag k='addr:housenumber' v='68/51' />
    <tag k='addr:postcode' v='2100' />
    <tag k='addr:state' v='NSW' />
    <tag k='addr:street' v='Little Willandra Road' />
    <tag k='addr:suburb' v='Oxford Falls' />
  </node>
  <node id='-173914' action='modify' visible='true' lat='-33.74044913903' lon='151.26634389943'>
    <tag k='addr:housenumber' v='70/51' />
    <tag k='addr:postcode' v='2100' />
    <tag k='addr:state' v='NSW' />
    <tag k='addr:street' v='Little Willandra Road' />
    <tag k='addr:suburb' v='Oxford Falls' />
  </node>
  <node id='-173915' action='modify' visible='true' lat='-33.74043830983' lon='151.26627614041'>
    <tag k='addr:housenumber' v='64/51' />
    <tag k='addr:postcode' v='2100' />
    <tag k='addr:state' v='NSW' />
    <tag k='addr:street' v='Little Willandra Road' />
    <tag k='addr:suburb' v='Oxford Falls' />
  </node>
  <node id='-173916' action='modify' visible='true' lat='-33.74044339003' lon='151.26626399531'>
    <tag k='addr:housenumber' v='66/51' />
    <tag k='addr:postcode' v='2100' />
    <tag k='addr:state' v='NSW' />
    <tag k='addr:street' v='Little Willandra Road' />
    <tag k='addr:suburb' v='Oxford Falls' />
  </node>
  <node id='-173917' action='modify' visible='true' lat='-33.74050614843' lon='151.26623685369'>
    <tag k='addr:housenumber' v='5/51' />
    <tag k='addr:postcode' v='2100' />
    <tag k='addr:state' v='NSW' />
    <tag k='addr:street' v='Little Willandra Road' />
    <tag k='addr:suburb' v='Oxford Falls' />
  </node>
  <node id='-173918' action='modify' visible='true' lat='-33.74054055489' lon='151.26627614041'>
    <tag k='addr:housenumber' v='63/51' />
    <tag k='addr:postcode' v='2100' />
    <tag k='addr:state' v='NSW' />
    <tag k='addr:street' v='Little Willandra Road' />
    <tag k='addr:suburb' v='Oxford Falls' />
  </node>
  <node id='-173919' action='modify' visible='true' lat='-33.7405297257' lon='151.26634389943'>
    <tag k='addr:housenumber' v='58/51' />
    <tag k='addr:postcode' v='2100' />
    <tag k='addr:state' v='NSW' />
    <tag k='addr:street' v='Little Willandra Road' />
    <tag k='addr:suburb' v='Oxford Falls' />
  </node>
  <node id='-173920' action='modify' visible='true' lat='-33.74051484137' lon='151.26635767497'>
    <tag k='addr:housenumber' v='62/51' />
    <tag k='addr:postcode' v='2100' />
    <tag k='addr:state' v='NSW' />
    <tag k='addr:street' v='Little Willandra Road' />
    <tag k='addr:suburb' v='Oxford Falls' />
  </node>
  <node id='-173921' action='modify' visible='true' lat='-33.74046074386' lon='151.26635542817'>
    <tag k='addr:housenumber' v='59/51' />
    <tag k='addr:postcode' v='2100' />
    <tag k='addr:state' v='NSW' />
    <tag k='addr:street' v='Little Willandra Road' />
    <tag k='addr:suburb' v='Oxford Falls' />
  </node>
  <node id='-173922' action='modify' visible='true' lat='-33.74043476495' lon='151.26629832095'>
    <tag k='addr:housenumber' v='60/51' />
    <tag k='addr:postcode' v='2100' />
    <tag k='addr:state' v='NSW' />
    <tag k='addr:street' v='Little Willandra Road' />
    <tag k='addr:suburb' v='Oxford Falls' />
  </node>
  <node id='-173923' action='modify' visible='true' lat='-33.74052707995' lon='151.2663471365'>
    <tag k='addr:housenumber' v='54/51' />
    <tag k='addr:postcode' v='2100' />
    <tag k='addr:state' v='NSW' />
    <tag k='addr:street' v='Little Willandra Road' />
    <tag k='addr:suburb' v='Oxford Falls' />
  </node>
  <node id='-173924' action='modify' visible='true' lat='-33.74048754518' lon='151.26623374458'>
    <tag k='addr:housenumber' v='55/51' />
    <tag k='addr:postcode' v='2100' />
    <tag k='addr:state' v='NSW' />
    <tag k='addr:street' v='Little Willandra Road' />
    <tag k='addr:suburb' v='Oxford Falls' />
  </node>
  <node id='-173925' action='modify' visible='true' lat='-33.74045760106' lon='151.26635291464'>
    <tag k='addr:housenumber' v='48/51' />
    <tag k='addr:postcode' v='2100' />
    <tag k='addr:state' v='NSW' />
    <tag k='addr:street' v='Little Willandra Road' />
    <tag k='addr:suburb' v='Oxford Falls' />
  </node>
  <node id='-173926' action='modify' visible='true' lat='-33.74043496032' lon='151.26629378813'>
    <tag k='addr:housenumber' v='53/51' />
    <tag k='addr:postcode' v='2100' />
    <tag k='addr:state' v='NSW' />
    <tag k='addr:street' v='Little Willandra Road' />
    <tag k='addr:suburb' v='Oxford Falls' />
  </node>
  <node id='-173927' action='modify' visible='true' lat='-33.74047271631' lon='151.26623685369'>
    <tag k='addr:housenumber' v='25/51' />
    <tag k='addr:postcode' v='2100' />
    <tag k='addr:state' v='NSW' />
    <tag k='addr:street' v='Little Willandra Road' />
    <tag k='addr:suburb' v='Oxford Falls' />
  </node>
  <node id='-173928' action='modify' visible='true' lat='-33.74049131956' lon='151.26623374458'>
    <tag k='addr:housenumber' v='46/51' />
    <tag k='addr:postcode' v='2100' />
    <tag k='addr:state' v='NSW' />
    <tag k='addr:street' v='Little Willandra Road' />
    <tag k='addr:suburb' v='Oxford Falls' />
  </node>
  <node id='-173929' action='modify' visible='true' lat='-33.7405354747' lon='151.26626399531'>
    <tag k='addr:housenumber' v='2/51' />
    <tag k='addr:postcode' v='2100' />
    <tag k='addr:state' v='NSW' />
    <tag k='addr:street' v='Little Willandra Road' />
    <tag k='addr:suburb' v='Oxford Falls' />
  </node>
  <node id='-173930' action='modify' visible='true' lat='-33.74053827653' lon='151.26632900214'>
    <tag k='addr:housenumber' v='85/51' />
    <tag k='addr:postcode' v='2100' />
    <tag k='addr:state' v='NSW' />
    <tag k='addr:street' v='Little Willandra Road' />
    <tag k='addr:suburb' v='Oxford Falls' />
  </node>
  <node id='-173931' action='modify' visible='true' lat='-33.74048190609' lon='151.26636458037'>
    <tag k='addr:housenumber' v='78/51' />
    <tag k='addr:postcode' v='2100' />
    <tag k='addr:state' v='NSW' />
    <tag k='addr:street' v='Little Willandra Road' />
    <tag k='addr:suburb' v='Oxford Falls' />
  </node>
  <node id='-173932' action='modify' visible='true' lat='-33.74047092945' lon='151.26636132685'>
    <tag k='addr:housenumber' v='20/51' />
    <tag k='addr:postcode' v='2100' />
    <tag k='addr:state' v='NSW' />
    <tag k='addr:street' v='Little Willandra Road' />
    <tag k='addr:suburb' v='Oxford Falls' />
  </node>
  <node id='-173933' action='modify' visible='true' lat='-33.74043573946' lon='151.26631186542'>
    <tag k='addr:housenumber' v='57/51' />
    <tag k='addr:postcode' v='2100' />
    <tag k='addr:state' v='NSW' />
    <tag k='addr:street' v='Little Willandra Road' />
    <tag k='addr:suburb' v='Oxford Falls' />
  </node>
  <node id='-173934' action='modify' visible='true' lat='-33.74046570954' lon='151.26624021674'>
    <tag k='addr:housenumber' v='29/51' />
    <tag k='addr:postcode' v='2100' />
    <tag k='addr:state' v='NSW' />
    <tag k='addr:street' v='Little Willandra Road' />
    <tag k='addr:suburb' v='Oxford Falls' />
  </node>
</osm>
